{ "newsJSON" : 
	[
		{
			"title": "Notification Message Lorem",
			"postdate": "September 29, 2013",
			"category": "notif",
			"categoryText": "",
			"subCategory": "Notification",	
			"mediaType": "",		
			"linkText": "Read more",
			"image": "images/sample/sample1.jpg",
			"dataFilter": "other",
			"isFav" : false
		},
		{
			"title": "Notification Message Lorem",
			"postdate": "September 29, 2013",
			"category": "notif",
			"categoryText": "",
			"subCategory": "Notification",	
			"mediaType": "",		
			"linkText": "Read more",
			"image": "images/sample/sample2.jpg",
			"dataFilter": "other",
			"isFav" : false
		},
		{
			"title": "Page Title lorem ipsum dolor sit amet, consectetur adipiscing elit. Praesent elementum eros nec dapibus",
			"postdate": "September 29, 2013",
			"category": "commodities",
			"categoryText": "",
			"subCategory": "News",	
			"mediaType": "",		
			"linkText": "Read more",
			"image": "images/sample/sample1.jpg",
			"dataFilter": "other",
			"isFav" : true
		},
		{
			"title": "Page Title lorem ipsum dolor sit amet",
			"postdate": "September 29, 2013",
			"category": "diamond",
			"categoryText": "",
			"subCategory": "Video",
			"mediaType": "video",	
			"linkText": "Read more",
			"image": "images/sample/sample2.jpg",
			"dataFilter": "diamond",
			"isFav" : true
		},
		{
			"title": "Page Title lorem ipsum dolor sit amet, consectetur adipiscing elit. Praesent elementum eros nec dapibus",
			"postdate": "",
			"category": "dmcc",
			"categoryText": "DMCC",
			"subCategory": "Who We Are",
			"mediaType": "",
			"linkText": "Read more",
			"image": "images/sample/sample3.jpg",
			"dataFilter": "other",
			"isFav" : false
		},
		{
			"title": "Page Title lorem ipsum dolor sit amet",
			"postdate": "September 29, 2013",
			"category": "commodities",
			"categoryText": "",
			"subCategory": "News",
			"mediaType": "photo",
			"linkText": "Read more",
			"image": "images/sample/sample4.jpg",
			"dataFilter": "other",
			"isFav" : false
		},
		{
			"title": "Page Title lorem ipsum dolor sit amet",
			"postdate": "",
			"category": "dmcc",
			"categoryText": "DMCC",
			"subCategory": "Video",
			"mediaType": "video",
			"linkText": "Read more",
			"image": "images/sample/sample5.jpg",
			"dataFilter": "other",
			"isFav" : false
		},
		{
			"title": "",
			"postdate": "",
			"category": "gallery",
			"categoryText": "",
			"subCategory": "",
			"mediaType": "gallery",
			"linkText": "View photograph",
			"image": [
				"images/sample/sample3.jpg",
				"images/sample/sample5.jpg",
				"images/sample/sample1.jpg"
			],
			"dataFilter": "diamond",
			"isFav" : false
		},
		{
			"title": "Page Title lorem ipsum dolor sit amet, consectetur adipiscing elit. Praesent elementum eros nec dapibus condimentum.",
			"postdate": "",
			"category": "freezone",
			"categoryText": "Freezone",
			"subCategory": "License",
			"mediaType": "",
			"linkText": "Read more",
			"image": "images/sample/sample15.jpg",
			"dataFilter": "freezone",
			"isFav" : false
		},
		{
			"title": "Page Title lorem ipsum dolor sit amet, consectetur adipiscing elit. Praesent elementum eros nec dapibus condimentum.",
			"postdate": "September 29, 2013",
			"category": "dmcc",
			"categoryText": "",
			"subCategory": "DMCC",
			"mediaType": "",
			"linkText": "Read more",
			"image": "images/sample/sample6.jpg",
			"dataFilter": "other",
			"isFav" : false
		},
		{
			"title": "Page Title lorem ipsum dolor sit amet",
			"postdate": "September 29, 2013",
			"category": "tea",
			"categoryText": "",
			"subCategory": "News",
			"mediaType": "event",
			"linkText": "Read more",
			"image": "images/sample/sample7.jpg",
			"dataFilter": "tea",
			"isFav" : false
		},
		{
			"title": "Page Title lorem ipsum dolor sit amet, consectetur adipiscing elit",
			"postdate": "September 29, 2013",
			"category": "dmcc",
			"categoryText": "",
			"subCategory": "News",
			"mediaType": "",
			"linkText": "Read more",
			"image": "images/sample/sample8.jpg",
			"dataFilter": "other",
			"isFav" : false
		},
		{
			"title": "Page Title lorem ipsum dolor sit amet, consectetur adipiscing elit.",
			"postdate": "September 29, 2013",
			"category": "tea",
			"categoryText": "",
			"subCategory": "Video",
			"mediaType": "video",
			"linkText": "Read more",
			"image": "images/sample/sample9.jpg",
			"dataFilter": "tea",
			"isFav" : false
		},
		{
			"title": "Page Title lorem ipsum dolor sit amet, consectetur adipiscing elit.",
			"postdate": "September 29, 2013",
			"category": "gold",
			"categoryText": "",
			"subCategory": "News",
			"mediaType": "",
			"linkText": "Read more",
			"image": "images/sample/sample10.jpg",
			"dataFilter": "gold",
			"isFav" : false
		},
		{
			"title": "Page Title lorem ipsum dolor sit amet, consectetur adipiscing elit.",
			"postdate": "September 29, 2013",
			"category": "commodities",
			"categoryText": "",
			"subCategory": "General FAQ",
			"mediaType": "event",
			"linkText": "Read more",
			"image": "images/sample/sample11.jpg",
			"dataFilter": "other",
			"isFav" : false
		},
		{
			"title": "Page Title lorem ipsum dolor sit amet, consectetur adipiscing elit. Praesent elementum eros nec dapibus condimentum.",
			"postdate": "",
			"category": "freezone",
			"categoryText": "Freezone",
			"subCategory": "Take A Tour",
			"mediaType": "",
			"linkText": "Read more",
			"image": "images/sample/sample16.jpg",
			"dataFilter": "freezone",
			"isFav" : false
		},
		{
			"title": "Page Title lorem ipsum dolor sit amet, consectetur adipiscing elit. Praesent elementum eros",
			"postdate": "September 29, 2013",
			"category": "diamond",
			"categoryText": "",
			"subCategory": "News",
			"mediaType": "audio",
			"linkText": "Read more",
			"image": "images/sample/sample15.jpg",
			"dataFilter": "diamond",
			"isFav" : false
		},
		{
			"title": "Page Title lorem ipsum dolor sit amet, consectetur adipiscing elit.",
			"postdate": "September 29, 2013",
			"category": "gold",
			"categoryText": "",
			"subCategory": "Video",
			"mediaType": "video",
			"linkText": "Read more",
			"image": "images/sample/sample13.jpg",
			"dataFilter": "gold",
			"isFav" : false
		},
		{
			"title": "Page Title lorem ipsum dolor sit amet",
			"postdate": "September 29, 2013",
			"category": "tea",
			"categoryText": "",
			"subCategory": "Event",
			"mediaType": "event",
			"linkText": "Read more",
			"image": "images/sample/sample14.jpg",
			"dataFilter": "tea",
			"isFav" : false
		},
		{
			"title": "Page Title lorem ipsum dolor sit amet, consectetur adipiscing elit.",
			"postdate": "September 29, 2013",
			"category": "gold",
			"categoryText": "",
			"subCategory": "News",
			"mediaType": "photo",
			"linkText": "Read more",
			"image": "images/sample/sample12.jpg",
			"dataFilter": "gold",
			"isFav" : false
		},
		{
			"title": "Page Title lorem ipsum dolor sit amet, consectetur adipiscing elit. Praesent elementum eros nec dapibus condimentum.",
			"postdate": "",
			"category": "freezone",
			"categoryText": "Freezone",
			"subCategory": "Apply Online",
			"mediaType": "",
			"linkText": "Read more",
			"image": "images/sample/sample14.jpg",
			"dataFilter": "freezone",
			"isFav" : false
		}
	]
}
