<?xml version="1.0" standalone="no"?> <!DOCTYPE svg PUBLIC "-//W3C//DTD SVG 1.0//EN" "http://www.w3.org/TR/2001/REC-SVG-20010904/DTD/svg10.dtd" > 
<svg xmlns="http://www.w3.org/2000/svg" width="100%" height="100%">
<metadata version="1.0"><uniqueid id="com.myfonts.linotype.frutiger.pro-66-bold-italic.wfkit2.fBxX"/><vendor name="MyFonts" url="http://www.myfonts.com/"/><credits><credit name="Adrian Frutiger" url="http://www.myfonts.com/person/frutiger/adrian/"/></credits><description><text lang="en">This is a Webfont from MyFonts. Full information about this font:
http://www.myfonts.com/fonts/linotype/frutiger/
</text></description><license url="http://www.myfonts.com/viewlicense?lid=1631"/><copyright><text lang="en">Part of the digitally encoded machine readable outline data for producing the Typefaces provided is copyrighted © 2006 Linotype GmbH, www.linotype.com. All rights reserved. This software is the property of Linotype GmbH, and may not be reproduced, used, displayed, modified, disclosed or transferred without the express written approval of Linotype GmbH.  Copyright © 1988, 1990, 1994 Adobe Systems Incorporated. All Rights Reserved. Frutiger is a trademark of Linotype GmbH and may be registered in certain jurisdictions. This typeface is original artwork of Adrian Frutiger. The design may be protected in certain jurisdictions.</text></copyright><trademark><text lang="en">Frutiger is a trademark of Linotype GmbH and may be registered in certain jurisdictions.</text></trademark></metadata>
<defs >
<font id="wf" horiz-adv-x="476" ><font-face
    font-family="Frutiger LT Pro 45 Light"
    units-per-em="1000"
    panose-1="2 11 7 3 3 5 4 9 2 4"
    ascent="774"
    descent="-226"
    alphabetic="0" />
<missing-glyph horiz-adv-x="512" d="M278 117H222V184H278V117ZM271 234H225L223 251Q223 307 236 332Q251 360 282 391Q313 420 322 437T332 474Q332 510 310 534T256 559Q185 559 174 464L124 472Q131 541 167 575T259 609Q313 609 348 573T383 478Q383 444
370 418T320 358Q283 325 277 306Q271 286 271 234ZM50 50H462V667H50V50ZM0 718H512V0H0V718Z" />
<glyph unicode=" " glyph-name="space" horiz-adv-x="278" />
<glyph unicode="!" glyph-name="exclam" horiz-adv-x="389" d="M133 205L213 698H370L244 205H133ZM106 140H246L217 0H77L106 140Z" />
<glyph unicode="&quot;" glyph-name="quotedbl" horiz-adv-x="500" d="M146 448V698H268V448H146ZM329 448V698H451V448H329Z" />
<glyph unicode="#" glyph-name="numbersign" horiz-adv-x="556" d="M524 285L513 205H421L393 0H304L332 205H228L200 0H112L140 205H48L59 285H151L169 413H77L88 493H180L208 698H297L268 493H371L399 698H488L459 493H551L540 413H450L432 285H524ZM359 413H258L241
285H342L359 413Z" />
<glyph unicode="$" glyph-name="dollar" horiz-adv-x="556" d="M565 677L530 563Q450 601 378 600L340 418Q378 400 402 386T455 347T498 293T512 224Q512 112 440 50T253 -12L235 -99H183L201 -12Q148 -12 95 0T9 28L45 150Q134 98 223 98L266 306Q228 324 204
338T152 376T112 431T98 500Q98 601 171 655T350 710L367 794H417L400 710Q436 710 487 700T565 677ZM294 440L328 600Q291 598 265 577T238 518Q238 469 294 440ZM314 284L275 98Q372 119 372 203Q372 252 314 284Z" />
<glyph unicode="%" glyph-name="percent" horiz-adv-x="1000" d="M712 -12Q647 -12 610 22T572 127Q572 221 621 288T761 356Q828 356 870 321T913 220Q913 126 860 57T712 -12ZM721 68Q747 68 765 84T793 126T805 177T809 227Q809 276 757 276Q734 276 717 259T692
215T680 164T676 116Q676 68 721 68ZM277 422Q303 422 321 438T349 481T361 533T365 583Q365 630 313 630Q290 630 273 613T248 570T236 520T232 472Q232 422 277 422ZM268 342Q204 342 166 377T128 483Q128 577 177 643T317 710Q384 710 426 676T469 576Q469 482
416 412T268 342ZM210 -22L752 720H837L295 -22H210Z" />
<glyph unicode="&amp;" glyph-name="ampersand" horiz-adv-x="722" d="M519 0L494 40Q461 17 408 3T304 -12Q202 -12 132 37T61 186Q61 268 115 322T253 403Q236 427 228 441T212 479T204 533Q204 618 265 664T413 710Q485 710 545 669T606 551T557 431T424 356L525
211Q583 297 586 379H708Q688 220 588 118L669 0H519ZM435 127L311 315Q257 294 226 268T195 193Q195 141 229 117T317 92Q388 92 435 127ZM490 551Q490 583 470 597T420 612Q381 612 357 590T332 529Q332 492 369 441Q490 474 490 551Z" />
<glyph unicode="&apos;" glyph-name="quotesingle" horiz-adv-x="278" d="M134 448V698H256V448H134Z" />
<glyph unicode="(" glyph-name="parenleft" horiz-adv-x="333" d="M287 756H429Q366 680 328 627T257 507T210 368T195 206Q195 33 248 -140H134Q105 -48 94 -8T68 108T53 246Q53 310 65 369T95 472T147 570T210 660T287 756Z" />
<glyph unicode=")" glyph-name="parenright" horiz-adv-x="333" d="M82 -140H-60Q3 -64 41 -11T112 109T159 248T174 410Q174 583 121 756H235Q264 664 275 624T301 508T316 370Q316 306 304 247T274 144T222 46T159 -44T82 -140Z" />
<glyph unicode="*" glyph-name="asterisk" horiz-adv-x="556" d="M181 641L300 554L314 698L419 675L373 539L515 566L523 462H382L453 344L353 298L308 436L205 322L133 401L257 487L125 545L181 641Z" />
<glyph unicode="+" glyph-name="plus" horiz-adv-x="600" d="M263 305V506H367V305H569V201H367V0H263V201H61V305H263Z" />
<glyph unicode="," glyph-name="comma" horiz-adv-x="278" d="M-37 -110L65 140H216L83 -110H-37Z" />
<glyph unicode="-" glyph-name="hyphen" horiz-adv-x="389" d="M59 214L82 324H345L322 214H59Z" />
<glyph unicode="." glyph-name="period" horiz-adv-x="278" d="M21 0L50 140H190L161 0H21Z" />
<glyph unicode="/" glyph-name="slash" horiz-adv-x="278" d="M412 710L31 -12H-85L296 710H412Z" />
<glyph unicode="0" glyph-name="zero" horiz-adv-x="556" d="M419 503Q419 606 354 606Q309 606 273 556T218 434T190 303T180 207Q180 92 259 92Q301 92 334 145T384 273T410 409T419 503ZM354 710Q553 710 553 478Q553 429 547 378T527 270T489 164T433 75T353
12T249 -12Q144 -12 95 56T46 234Q46 307 63 385T115 538T211 661T354 710Z" />
<glyph unicode="1" glyph-name="one" horiz-adv-x="556" d="M185 450L124 545L358 698H485L334 0H194L313 539L185 450Z" />
<glyph unicode="2" glyph-name="two" horiz-adv-x="556" d="M471 110L450 0H-9L13 115Q46 146 122 206T250 310T345 408T389 502Q389 548 359 574T284 600Q208 600 123 540L120 665Q237 710 308 710Q405 710 470 663T535 521Q535 496 528 470T512 423T484 375T452
330T411 286T369 247T323 208T280 174T237 141T199 112V110H471Z" />
<glyph unicode="3" glyph-name="three" horiz-adv-x="556" d="M7 28L32 135Q110 98 201 98Q260 98 305 126T351 213Q351 240 336 258T303 286T253 300T203 305T155 306L174 416Q204 416 221 416T269 420T319 430T358 450T388 482T398 530Q398 600 292 600Q217
600 139 563L153 680Q252 710 328 710Q418 710 481 669T544 543Q544 470 500 426T380 366V363Q438 342 467 308T497 217Q497 105 414 47T212 -12Q91 -12 7 28Z" />
<glyph unicode="4" glyph-name="four" horiz-adv-x="556" d="M13 145L28 264L377 698H551L454 249H552L530 145H434L403 0H269L300 145H13ZM323 249L394 576H392L153 249H323Z" />
<glyph unicode="5" glyph-name="five" horiz-adv-x="556" d="M106 322L190 698H590L568 594H300L268 451Q280 452 305 452Q398 452 458 400T519 240Q519 122 437 55T230 -12Q132 -12 37 21L60 134Q148 98 211 98Q278 98 325 133T373 234Q373 291 332 316T230 342Q168
342 106 322Z" />
<glyph unicode="6" glyph-name="six" horiz-adv-x="556" d="M270 -12Q160 -12 108 54T56 235Q56 323 77 405T141 556T256 668T421 710Q517 710 582 681L547 579Q495 600 430 600Q351 600 300 550T222 418H224Q274 451 333 451Q422 451 472 400T522 260Q522 141
455 65T270 -12ZM382 254Q382 347 301 347Q247 347 219 302T190 198Q190 155 211 124T269 92Q325 92 353 142T382 254Z" />
<glyph unicode="7" glyph-name="seven" horiz-adv-x="556" d="M102 588L123 698H586L560 571L201 0H39L416 588H102Z" />
<glyph unicode="8" glyph-name="eight" horiz-adv-x="556" d="M387 200Q387 221 382 237T362 269T339 291T308 316Q174 267 174 186Q174 141 202 117T276 92Q323 92 355 122T387 200ZM453 531Q453 568 425 587T359 606Q316 606 283 580T249 512Q249 462 332 413Q359
423 376 431T413 454T443 487T453 531ZM34 172Q34 326 203 377Q167 398 144 433T121 509Q121 608 191 659T368 710Q419 710 465 695T546 643T581 553Q581 481 543 433T433 367Q527 313 527 216Q527 104 455 46T261 -12Q169 -12 102 38T34 172Z" />
<glyph unicode="9" glyph-name="nine" horiz-adv-x="556" d="M334 710Q444 710 496 644T548 463Q548 375 527 293T463 142T348 30T183 -12Q87 -12 22 17L57 119Q109 98 174 98Q253 98 304 148T382 280H380Q330 247 271 247Q182 247 132 298T82 438Q82 557 149
633T334 710ZM414 500Q414 543 393 574T335 606Q279 606 251 556T222 444Q222 351 303 351Q357 351 385 396T414 500Z" />
<glyph unicode=":" glyph-name="colon" horiz-adv-x="278" d="M128 515H268L239 375H99L128 515ZM50 140H190L161 0H21L50 140Z" />
<glyph unicode=";" glyph-name="semicolon" horiz-adv-x="278" d="M65 140H216L83 -110H-37L65 140ZM128 515H268L239 375H99L128 515Z" />
<glyph unicode="&lt;" glyph-name="less" horiz-adv-x="600" d="M569 94V-8L61 210V296L569 514V412L196 253L569 94Z" />
<glyph unicode="=" glyph-name="equal" horiz-adv-x="600" d="M569 414V310H61V414H569ZM569 196V92H61V196H569Z" />
<glyph unicode="&gt;" glyph-name="greater" horiz-adv-x="600" d="M61 94L434 253L61 412V514L569 296V210L61 -8V94Z" />
<glyph unicode="?" glyph-name="question" horiz-adv-x="500" d="M279 205H157Q166 277 196 322T290 417Q312 434 324 446T348 480T360 525Q360 565 324 585T244 606Q177 606 120 581V693Q203 710 262 710Q324 710 376 694T467 635T506 528Q506 497 498 471T470
422T436 385T391 347T348 312Q283 255 279 205ZM141 140H281L252 0H112L141 140Z" />
<glyph unicode="@" glyph-name="at" horiz-adv-x="800" d="M439 446Q392 446 360 406T327 318Q327 282 347 259T402 236Q448 236 480 276T513 366Q513 402 493 424T439 446ZM655 143H740Q635 -12 424 -12Q357 -12 294 11T178 77T93 191T61 349Q61 500 171 605T448
710Q511 710 569 693T677 641T757 548T787 416Q787 344 758 287T685 200T603 154T535 138Q513 138 498 151T481 190H479Q433 138 378 138Q314 138 269 185T223 303Q223 402 283 473T429 544Q502 544 545 480L557 528H641L586 285Q579 259 579 251Q579 236 594 236Q637
236 672 281T707 413Q707 471 684 513T622 577T539 608T448 618Q326 618 246 538T165 349Q165 233 238 157T424 80Q580 80 655 143Z" />
<glyph unicode="A" glyph-name="A" horiz-adv-x="722" d="M432 574L264 270H480L436 574H432ZM-42 0L381 698H536L663 0H523L499 160H202L113 0H-42Z" />
<glyph unicode="B" glyph-name="B" horiz-adv-x="611" d="M21 0L167 698H374Q466 698 525 659T585 531Q585 469 542 422T436 365V363Q492 354 520 315T548 216Q548 159 523 117T464 54T380 19T295 3T220 0H21ZM220 312L178 110H226Q265 110 292 113T348 128T392
164T408 228Q408 278 370 295T265 312H220ZM279 588L242 416H297Q445 416 445 518Q445 542 435 557T406 578T370 586T328 588H279Z" />
<glyph unicode="C" glyph-name="C" horiz-adv-x="611" d="M674 676L639 559Q579 600 479 600Q363 600 289 521T215 319Q215 228 270 163T414 98Q489 98 561 141L539 7Q470 -12 381 -12Q228 -12 149 79T69 319Q69 491 178 600T469 710Q591 710 674 676Z" />
<glyph unicode="D" glyph-name="D" horiz-adv-x="722" d="M295 588L195 110H260Q408 110 481 191T554 420Q554 500 497 544T343 588H295ZM31 0L178 698H388Q448 698 499 685T597 641T672 548T700 400Q700 347 689 296T648 190T572 94T446 27T266 0H31Z" />
<glyph unicode="E" glyph-name="E" horiz-adv-x="556" d="M31 0L178 698H589L568 588H295L259 416H503L481 306H236L195 110H471L447 0H31Z" />
<glyph unicode="F" glyph-name="F" horiz-adv-x="500" d="M31 0L178 698H563L539 588H295L258 416H491L469 306H235L171 0H31Z" />
<glyph unicode="G" glyph-name="G" horiz-adv-x="722" d="M726 671L691 550Q614 600 497 600Q372 600 296 515T220 302Q220 215 274 157T417 98Q470 98 486 105L525 290H377L400 400H683L603 19Q528 -12 416 -12Q256 -12 165 64T74 298Q74 488 188 599T493 710Q624
710 726 671Z" />
<glyph unicode="H" glyph-name="H" horiz-adv-x="722" d="M31 0L177 698H317L258 416H540L599 698H739L593 0H453L517 306H235L171 0H31Z" />
<glyph unicode="I" glyph-name="I" horiz-adv-x="278" d="M17 0L164 698H310L163 0H17Z" />
<glyph unicode="J" glyph-name="J" horiz-adv-x="389" d="M271 698H411L313 224Q290 105 242 47T83 -12Q19 -12 -34 2L-2 121Q29 110 62 110Q113 110 137 141T173 228L271 698Z" />
<glyph unicode="K" glyph-name="K" horiz-adv-x="667" d="M181 698H321L262 424H264L541 698H736L383 380L608 0H441L247 355L171 0H31L181 698Z" />
<glyph unicode="L" glyph-name="L" horiz-adv-x="500" d="M23 0L171 698H311L186 110H460L436 0H23Z" />
<glyph unicode="M" glyph-name="M" horiz-adv-x="944" d="M31 0L179 698H410L457 195H459L734 698H967L818 0H670L802 578H800L484 0H350L294 578H292L164 0H31Z" />
<glyph unicode="N" glyph-name="N" horiz-adv-x="722" d="M25 0L175 698H352L501 168H503L617 698H749L598 0H418L272 535H270L159 0H25Z" />
<glyph unicode="O" glyph-name="O" horiz-adv-x="778" d="M466 710Q607 710 682 633T757 414Q757 236 640 105Q535 -12 344 -12Q218 -12 144 69T69 278Q69 451 179 580Q293 710 466 710ZM462 600Q404 600 356 569T277 488T231 382T215 270Q215 197 252 148T362
98Q437 98 496 152T583 281T611 429Q611 503 573 551T462 600Z" />
<glyph unicode="P" glyph-name="P" horiz-adv-x="556" d="M217 265L161 0H21L169 698H287Q321 698 345 697T403 693T462 682T512 662T555 629T582 582T593 517Q593 396 508 331T298 265H217ZM286 588L241 375H291Q354 375 400 408T447 502Q447 588 330 588H286Z" />
<glyph unicode="Q" glyph-name="Q" horiz-adv-x="778" d="M648 -132H481L379 -11Q367 -12 344 -12Q218 -12 144 69T69 278Q69 451 179 580Q293 710 466 710Q607 710 682 633T757 414Q757 236 640 105Q585 42 501 14L648 -132ZM462 600Q404 600 356 569T277 488T231
382T215 270Q215 197 252 148T362 98Q437 98 496 152T583 281T611 429Q611 503 573 551T462 600Z" />
<glyph unicode="R" glyph-name="R" horiz-adv-x="611" d="M21 0L167 698H332Q363 698 376 698T418 697T462 693T500 685T537 671T566 650T590 621T604 583T610 533Q610 446 553 398T406 347V345Q463 342 477 281L544 0H397L363 164Q361 175 357 198T350 230T342
254T328 274T307 285T275 290H222L161 0H21ZM286 588L247 400H298Q341 400 375 409T437 445T464 515Q464 536 457 550T439 572T410 583T379 587T344 588H286Z" />
<glyph unicode="S" glyph-name="S" horiz-adv-x="556" d="M553 679L520 564Q450 600 375 600Q330 600 294 581T258 520Q258 490 282 466T342 422T412 379T471 315T496 221Q496 101 416 45T209 -12Q117 -12 10 27L46 146Q150 98 217 98Q272 98 311 126T350 207Q350
241 326 267T266 311T196 351T137 410T112 499Q112 552 133 593T192 660T274 697T372 710Q476 710 553 679Z" />
<glyph unicode="T" glyph-name="T" horiz-adv-x="556" d="M84 588L108 698H647L624 588H427L300 0H154L281 588H84Z" />
<glyph unicode="U" glyph-name="U" horiz-adv-x="722" d="M243 698H383L312 367Q306 339 302 321T294 272T291 220T297 174T316 134T352 109T407 98Q437 98 462 106T504 126T537 159T560 198T578 245T591 293T603 344L679 698H817L724 276Q692 133 619 61T406
-12Q95 -12 163 319L243 698Z" />
<glyph unicode="V" glyph-name="V" horiz-adv-x="667" d="M199 0L107 698H247L312 155H314L604 698H756L366 0H199Z" />
<glyph unicode="W" glyph-name="W" horiz-adv-x="1000" d="M151 0L107 698H247L268 163H270L502 698H690L693 163H695L942 698H1087L754 0H579L572 558H570L324 0H151Z" />
<glyph unicode="X" glyph-name="X" horiz-adv-x="667" d="M126 698H277L378 458H380L572 698H737L448 365L610 0H457L350 280H348L130 0H-44L279 379L126 698Z" />
<glyph unicode="Y" glyph-name="Y" horiz-adv-x="667" d="M210 0L271 289L107 698H255L359 405L586 698H749L411 289L350 0H210Z" />
<glyph unicode="Z" glyph-name="Z" horiz-adv-x="556" d="M124 588L148 698H627L603 588L182 110H500L477 0H-13L9 110L429 588H124Z" />
<glyph unicode="[" glyph-name="bracketleft" horiz-adv-x="389" d="M31 -140L229 756H457L436 658H330L175 -42H280L259 -140H31Z" />
<glyph unicode="\" glyph-name="backslash" horiz-adv-x="278" d="M234 -12L-10 710H94L338 -12H234Z" />
<glyph unicode="]" glyph-name="bracketright" horiz-adv-x="389" d="M396 756L198 -140H-30L-9 -42H97L252 658H147L168 756H396Z" />
<glyph unicode="^" glyph-name="asciicircum" horiz-adv-x="600" d="M190 313H86L273 698H367L554 313H450L320 593L190 313Z" />
<glyph unicode="_" glyph-name="underscore" horiz-adv-x="500" d="M0 -75H500V-125H0V-75Z" />
<glyph unicode="`" glyph-name="grave" horiz-adv-x="278" d="M296 585H211L82 731H215L296 585Z" />
<glyph unicode="a" glyph-name="a" horiz-adv-x="556" d="M334 0L348 79H346Q309 33 271 11T180 -12Q108 -12 65 26T21 135Q21 184 42 219T95 273T172 302T255 315T337 318H384Q388 332 388 362Q388 398 358 413T285 429Q201 429 116 389L135 496Q223 527 310
527T453 490T510 368Q510 330 481 184T447 0H334ZM149 140Q149 114 169 100T217 86Q285 86 317 125T369 238H322Q149 238 149 140Z" />
<glyph unicode="b" glyph-name="b" horiz-adv-x="611" d="M180 750H317L251 464V462L253 464L254 462Q312 527 392 527Q485 527 533 470T581 318Q581 234 553 161T461 38T313 -12Q256 -12 226 4T165 73H163L147 0H21L180 750ZM205 213Q205 159 226 126T293 92Q345
92 380 132T428 219T441 313Q441 362 417 392T347 423Q284 423 245 356T205 213Z" />
<glyph unicode="c" glyph-name="c" horiz-adv-x="444" d="M479 507L446 397Q406 423 348 423Q272 423 227 364T181 226Q181 92 295 92Q350 92 404 118L389 12Q340 -12 260 -12Q161 -12 101 49T41 210Q41 347 124 437T345 527Q414 527 479 507Z" />
<glyph unicode="d" glyph-name="d" horiz-adv-x="611" d="M524 750H658L519 114Q503 26 500 0H375L388 76H386Q323 -12 218 -12Q131 -12 86 49T41 202Q41 261 57 318T104 422T186 498T300 527Q395 527 459 454L524 750ZM322 423Q277 423 244 386T196 303T181 214Q181
184 187 159T212 113T263 92Q332 92 375 157T419 301Q419 351 395 387T322 423Z" />
<glyph unicode="e" glyph-name="e" horiz-adv-x="556" d="M523 216H160Q160 147 196 117T303 86Q381 86 461 123L444 17Q350 -12 280 -12Q165 -12 99 45T32 213Q32 337 117 432T325 527Q423 527 479 477T536 331Q536 278 523 216ZM178 308H405Q408 326 408 343Q408
429 323 429Q265 429 233 398T178 308Z" />
<glyph unicode="f" glyph-name="f" horiz-adv-x="389" d="M69 0L157 417H53L74 515H178Q187 559 197 591T224 658T265 713T324 748T405 762Q447 762 488 749L457 649Q439 658 416 658Q391 658 373 646T343 610T326 569T314 524Q313 518 312 515H432L411 417H291L203
0H69Z" />
<glyph unicode="g" glyph-name="g" horiz-adv-x="611" d="M5 -187L39 -78Q135 -118 201 -118Q305 -118 349 -39Q368 -6 396 98H394Q369 52 323 26T221 0Q133 0 88 63T42 218Q42 342 113 434T303 527Q408 527 460 440L475 515H604Q597 492 587 443L505 56Q478 -80
411 -151T211 -222Q97 -222 5 -187ZM418 315Q418 362 392 392T321 423T243 387T196 307T182 219Q182 169 203 137T267 104Q341 104 379 168T418 315Z" />
<glyph unicode="h" glyph-name="h" horiz-adv-x="611" d="M21 0L181 750H315L251 465H253Q320 527 399 527Q475 527 521 483T567 362Q567 328 550 250L496 0H362L412 243Q427 318 427 351Q427 383 407 403T354 423Q246 423 210 259L155 0H21Z" />
<glyph unicode="i" glyph-name="i" horiz-adv-x="278" d="M21 0L131 515H265L155 0H21ZM152 609L180 737H314L286 609H152Z" />
<glyph unicode="j" glyph-name="j" horiz-adv-x="278" d="M131 515H265L155 2Q127 -129 95 -175T-14 -222Q-59 -222 -103 -210L-71 -112Q-53 -118 -41 -118Q-19 -118 -8 -101T10 -49L131 515ZM152 609L180 737H314L286 609H152Z" />
<glyph unicode="k" glyph-name="k" horiz-adv-x="556" d="M21 0L180 750H314L225 328H227L414 515H588L341 280L496 0H345L212 273H210L152 0H21Z" />
<glyph unicode="l" glyph-name="l" horiz-adv-x="278" d="M21 0L180 750H314L155 0H21Z" />
<glyph unicode="m" glyph-name="m" horiz-adv-x="889" d="M21 0L115 458L126 515H251L239 446H241Q296 527 399 527Q447 527 486 500T530 429H532Q556 477 606 502T713 527Q771 527 813 486T856 386Q856 334 833 246L779 0H645L699 251Q716 326 716 361Q716 389
698 406T653 423Q634 423 617 416T589 401T567 375T551 346T538 310T528 278T520 245L467 0H333L387 251Q404 326 404 361Q404 389 386 406T341 423T294 410T260 382T236 336T220 291T208 245L155 0H21Z" />
<glyph unicode="n" glyph-name="n" horiz-adv-x="611" d="M21 0L116 441Q127 496 129 515H260L251 465H253Q320 527 399 527Q475 527 521 483T567 362Q567 328 550 250L496 0H362L412 243Q427 318 427 351Q427 383 407 403T354 423Q246 423 210 259L155 0H21Z" />
<glyph unicode="o" glyph-name="o" horiz-adv-x="611" d="M286 92Q335 92 372 126T425 207T442 300Q442 423 340 423Q290 423 253 389T198 309T181 213Q181 92 286 92ZM346 527Q452 527 517 467T582 301Q582 164 497 76T275 -12Q166 -12 104 51T41 223Q41 352
128 439T346 527Z" />
<glyph unicode="p" glyph-name="p" horiz-adv-x="611" d="M-24 -210L112 448Q121 493 123 515H250L235 447H237Q294 527 392 527Q485 527 533 470T581 318Q581 234 553 161T461 38T313 -12Q199 -12 171 80H169L110 -210H-24ZM441 313Q441 362 417 392T347 423Q284
423 245 356T205 213Q205 159 226 126T293 92Q345 92 380 132T428 219T441 313Z" />
<glyph unicode="q" glyph-name="q" horiz-adv-x="611" d="M181 214Q181 184 187 159T212 113T263 92Q332 92 375 157T419 301Q419 351 395 387T322 423Q277 423 244 386T196 303T181 214ZM312 -210L374 67L372 69Q328 -12 218 -12Q131 -12 86 49T41 202Q41 261
57 318T104 422T186 498T300 527Q359 527 396 505T453 429H455L474 515H603Q591 476 581 427L446 -210H312Z" />
<glyph unicode="r" glyph-name="r" horiz-adv-x="389" d="M21 0L113 446L125 515H253L235 418H237Q256 461 300 494T389 527Q420 527 440 522L412 391Q388 399 361 399Q295 399 257 351T203 231L155 0H21Z" />
<glyph unicode="s" glyph-name="s" horiz-adv-x="444" d="M442 506L413 405Q348 429 303 429Q267 429 240 417T213 377Q213 359 231 342T274 309T325 274T369 226T387 162Q387 114 368 79T314 24T240 -3T155 -12Q64 -12 -2 19L27 126Q99 86 155 86Q193 86 220
100T247 143Q247 166 229 185T186 219T135 253T91 299T73 363Q73 406 92 439T145 490T216 518T296 527Q360 527 442 506Z" />
<glyph unicode="t" glyph-name="t" horiz-adv-x="389" d="M53 417L74 515H171L194 621L338 668L305 515H425L404 417H284L235 192Q229 168 229 142Q229 119 243 106T280 92Q316 92 345 104L322 0Q267 -12 250 -12Q95 -12 95 123Q95 166 112 243L150 417H53Z" />
<glyph unicode="u" glyph-name="u" horiz-adv-x="611" d="M600 515L505 74Q494 19 492 0H361L370 50H368Q301 -12 222 -12Q146 -12 100 32T54 153Q54 187 71 265L125 515H259L209 272Q194 197 194 164Q194 132 214 112T267 92Q375 92 411 256L466 515H600Z" />
<glyph unicode="v" glyph-name="v" horiz-adv-x="556" d="M153 0L66 515H203L255 137H257L460 515H602L301 0H153Z" />
<glyph unicode="w" glyph-name="w" horiz-adv-x="889" d="M134 0L66 515H200L237 128H239L428 515H577L605 128H607L805 515H942L656 0H505L476 394H474L286 0H134Z" />
<glyph unicode="x" glyph-name="x" horiz-adv-x="556" d="M222 515L289 338L434 515H594L375 269L498 0H352L273 197L119 0H-41L192 269L83 515H222Z" />
<glyph unicode="y" glyph-name="y" horiz-adv-x="556" d="M66 515H203L251 132H253L458 515H605L256 -78Q230 -122 209 -148T146 -198T51 -222Q2 -222 -49 -208L-19 -106Q13 -118 40 -118Q71 -118 97 -98T157 -25L66 515Z" />
<glyph unicode="z" glyph-name="z" horiz-adv-x="500" d="M514 515L492 411L177 104H435L416 0H-15L6 104L323 411H86L109 515H514Z" />
<glyph unicode="{" glyph-name="braceleft" horiz-adv-x="333" d="M435 756L418 676H376Q322 676 306 606L263 417Q244 330 134 309V307Q190 303 206 274T211 190L169 4Q159 -23 165 -41T203 -60H250L233 -140H147Q15 -140 48 10L82 161Q96 209 83 237T15 265L34
351Q72 351 104 373T144 430L188 627Q202 685 246 720T350 756H435Z" />
<glyph unicode="|" glyph-name="bar" horiz-adv-x="222" d="M84 750H188V-250H84V750Z" />
<glyph unicode="}" glyph-name="braceright" horiz-adv-x="333" d="M15 -140H-70L-53 -60H-11Q43 -60 59 10L102 199Q121 286 231 307V309Q175 313 159 342T154 426L196 612Q206 639 200 657T162 676H115L132 756H218Q350 756 317 606L283 455Q269 407 282 379T350
351L331 265Q293 265 261 243T221 186L177 -11Q163 -69 119 -104T15 -140Z" />
<glyph unicode="~" glyph-name="asciitilde" horiz-adv-x="600" d="M120 164L84 252Q130 340 205 340Q258 340 322 306Q325 305 339 298T357 289T373 282T391 276T408 272T427 270Q443 270 459 282T485 306T510 342L546 254Q494 166 431 166Q383 166 315 201Q249
236 206 236Q153 236 120 164Z" />
<glyph unicode="&#xa0;" glyph-name="uni00A0" horiz-adv-x="278" />
<glyph unicode="&#xa1;" glyph-name="exclamdown" horiz-adv-x="389" d="M283 375H143L172 515H312L283 375ZM176 -183H19L145 310H256L176 -183Z" />
<glyph unicode="&#xa2;" glyph-name="cent" horiz-adv-x="556" d="M280 112L374 423Q310 411 273 353T235 226Q235 143 280 112ZM440 639H492L457 522Q494 518 533 507L500 397Q465 420 428 425L327 95Q335 92 349 92Q404 92 458 118L443 12Q394 -12 314 -12Q300
-12 295 -11L256 -139H204L246 -2Q175 16 135 72T95 210Q95 347 178 437T399 527H406L440 639Z" />
<glyph unicode="&#xa3;" glyph-name="sterling" horiz-adv-x="556" d="M609 685L579 572Q523 600 476 600Q435 600 407 586T362 544T336 489T317 421Q314 409 313 403H468L451 323H297L249 104H482L459 0H0L23 104H109L157 323H81L98 403H173Q187 480 205 531T256
625T341 689T470 710Q540 710 609 685Z" />
<glyph unicode="&#xa4;" glyph-name="currency" horiz-adv-x="556" d="M505 611L564 552L506 494Q552 430 552 352Q552 275 506 208L564 150L505 91L447 149Q381 103 304 103T161 149L103 91L44 150L102 208Q56 273 56 351Q56 428 102 494L44 552L103 611L161
553Q225 599 304 599Q381 599 447 553L505 611ZM166 410T166 351T206 250T304 207T401 249T442 351T402 452T304 495T207 453Z" />
<glyph unicode="&#xa5;" glyph-name="yen" horiz-adv-x="556" d="M70 698H211L310 405L526 698H680L410 369H521L505 289H359L345 227H493L477 147H331L302 0H168L199 147H53L69 227H213L225 289H79L95 369H205L70 698Z" />
<glyph unicode="&#xa6;" glyph-name="brokenbar" horiz-adv-x="222" d="M84 675H188V325H84V675ZM84 175H188V-175H84V175Z" />
<glyph unicode="&#xa7;" glyph-name="section" horiz-adv-x="556" d="M16 -96L50 5Q146 -32 214 -32Q241 -32 264 -28T309 -9T331 31Q331 59 307 79T247 115T176 149T116 202T91 283Q91 336 126 375T212 431Q155 476 155 533Q155 620 220 665T377 710Q487 710
571 668L532 570Q468 606 383 606Q339 606 305 591T271 544Q271 517 296 497T357 461T429 427T490 375T515 296Q515 248 482 208T400 149Q453 106 453 50Q453 -40 387 -88T226 -136Q133 -136 16 -96ZM277 389Q259 380 248 374T223 356T202 331T195 300Q195 279
213 260T247 232T296 208T333 191Q349 199 360 206T385 225T404 250T411 280T402 310T374 337T342 357T305 376T277 389Z" />
<glyph unicode="&#xa8;" glyph-name="dieresis" horiz-adv-x="278" d="M379 725L354 609H240L265 725H379ZM171 725L146 609H32L57 725H171Z" />
<glyph unicode="&#xa9;" glyph-name="copyright" horiz-adv-x="800" d="M679 226T679 349T605 551T422 630Q312 630 239 551T165 349Q165 225 238 147T422 68Q531 68 605 147ZM528 291H611Q600 220 552 180T436 139Q345 139 289 199T232 352Q232 445 286 505T434
565Q503 565 550 526T608 415H528Q521 449 496 467T434 485Q385 485 358 449T330 353Q330 296 359 258T436 219Q474 219 499 238T528 291ZM61 200T61 349T167 604T422 710T677 604T783 349T677 94T422 -12T167 94Z" />
<glyph unicode="&#xaa;" glyph-name="ordfeminine" horiz-adv-x="361" d="M358 392H271L281 440H279Q240 384 171 384Q125 384 99 407T72 473Q72 510 92 534T148 568T212 581T278 584H307Q307 587 308 592T309 602T310 611Q310 629 291 639T245 650Q191 650 135
622L147 692Q202 710 261 710Q396 710 396 614Q396 591 373 476Q362 421 358 392ZM205 444Q272 444 294 530H274Q158 530 158 476Q158 461 172 453T205 444Z" />
<glyph unicode="&#xab;" glyph-name="guillemotleft" horiz-adv-x="611" d="M46 269L196 474H336L178 269L248 64H133L46 269ZM268 269L418 474H558L400 269L470 64H355L268 269Z" />
<glyph unicode="&#xac;" glyph-name="logicalnot" horiz-adv-x="600" d="M465 108V310H61V414H569V108H465Z" />
<glyph unicode="&#xad;" glyph-name="uni00AD" horiz-adv-x="389" d="M59 214L82 324H345L322 214H59Z" />
<glyph unicode="&#xae;" glyph-name="registered" horiz-adv-x="800" d="M61 200T61 349T167 604T422 710T677 604T783 349T677 94T422 -12T167 94ZM165 349Q165 225 238 147T422 68Q531 68 605 147T679 349T605 551T422 630Q312 630 239 551T165 349ZM277 150V551H428Q508
551 548 524T588 431Q588 333 482 324L588 150H500L404 320H363V150H277ZM363 386H433Q468 386 485 396T502 439Q502 485 424 485H363V386Z" />
<glyph unicode="&#xaf;" glyph-name="overscore" horiz-adv-x="278" d="M53 618L69 698H366L351 618H53Z" />
<glyph unicode="&#xb0;" glyph-name="degree" horiz-adv-x="400" d="M291 637T252 637T189 613T164 549T188 486T252 461T315 485T340 549T316 612ZM185 710T252 710T366 663T413 549Q413 481 367 435T252 388Q182 388 137 433T91 549Q91 616 138 663Z" />
<glyph unicode="&#xb1;" glyph-name="plusminus" horiz-adv-x="600" d="M263 374V506H367V374H569V270H367V137H263V270H61V374H263ZM61 0V104H569V0H61Z" />
<glyph unicode="&#xb2;" glyph-name="twosuperior" horiz-adv-x="361" d="M113 598L110 683Q189 710 243 710Q309 710 355 684T401 597Q401 540 342 477Q282 413 201 370V368H360L346 282H27L41 352L184 462Q187 465 206 479T234 501T258 523T278 550T285 575Q285
599 267 611T218 624Q177 624 113 598Z" />
<glyph unicode="&#xb3;" glyph-name="threesuperior" horiz-adv-x="361" d="M111 611L120 692Q187 710 244 710Q394 710 394 609Q394 565 363 538T287 503V501Q363 475 363 417Q363 366 332 333T260 288T169 276Q82 276 26 301L42 375Q92 356 152 356Q189 356
218 370T247 412Q247 456 157 456H122L134 536Q278 536 278 595Q278 611 261 620T221 630Q155 630 111 611Z" />
<glyph unicode="&#xb4;" glyph-name="acute" horiz-adv-x="278" d="M132 585L213 731H346L218 585H132Z" />
<glyph unicode="&#xb5;" glyph-name="mu" horiz-adv-x="611" d="M127 515H259L209 272Q194 197 194 164Q194 132 214 112T267 92Q375 92 411 256L466 515H600L505 74Q494 19 492 0H361L370 50H368Q301 -12 222 -12Q181 -12 158 22L110 -210H-24L127 515Z" />
<glyph unicode="&#xb6;" glyph-name="paragraph" horiz-adv-x="620" d="M178 -124L275 341Q185 341 137 377T88 476Q88 560 140 618Q211 698 370 698H663L492 -124H388L542 618H436L282 -124H178Z" />
<glyph unicode="&#xb7;" glyph-name="middot" horiz-adv-x="278" d="M188 207T157 207T103 230T80 284T103 338T157 361T211 339T234 284T211 230Z" />
<glyph unicode="&#xb8;" glyph-name="cedilla" horiz-adv-x="278" d="M59 -191L76 -135Q125 -162 176 -162Q198 -162 218 -153T238 -123Q238 -104 221 -95T183 -86Q169 -86 156 -91L187 0H242L227 -44Q268 -44 289 -53Q336 -69 336 -122Q336 -177 291 -199T184
-222Q128 -222 59 -191Z" />
<glyph unicode="&#xb9;" glyph-name="onesuperior" horiz-adv-x="361" d="M131 553L92 610L244 704H346L248 282H138L215 604L131 553Z" />
<glyph unicode="&#xba;" glyph-name="ordmasculine" horiz-adv-x="397" d="M282 650Q236 650 207 612T177 526Q177 490 194 467T245 444Q288 444 318 484T348 568Q348 603 332 626T282 650ZM285 710Q354 710 400 676T446 574Q446 486 387 435T239 384Q167 384
123 420T79 527Q79 610 139 660T285 710Z" />
<glyph unicode="&#xbb;" glyph-name="guillemotright" horiz-adv-x="611" d="M565 269L415 64H275L433 269L363 474H478L565 269ZM343 269L193 64H53L211 269L141 474H256L343 269Z" />
<glyph unicode="&#xbc;" glyph-name="onequarter" horiz-adv-x="834" d="M398 163L625 422H758L697 157H762L743 77H680L662 0H555L573 77H387L398 163ZM628 324L490 157H591L630 324H628ZM152 -22L572 720H657L237 -22H152ZM116 610L268 704H370L272 282H162L239
604L155 553L116 610Z" />
<glyph unicode="&#xbd;" glyph-name="onehalf" horiz-adv-x="834" d="M557 720H642L222 -22H137L557 720ZM155 553L116 610L268 704H370L272 282H162L239 606L155 553ZM422 0L436 70L579 180Q582 183 601 197T629 219T653 241T673 268T680 293Q680 317 662 329T613
342Q572 342 508 316L505 401Q584 428 638 428Q704 428 750 402T796 315Q796 258 737 195Q677 131 596 88V86H755L741 0H422Z" />
<glyph unicode="&#xbe;" glyph-name="threequarters" horiz-adv-x="834" d="M585 0L603 77H417L428 163L655 422H788L727 157H792L773 77H710L692 0H585ZM520 157H621L660 324H658L520 157ZM612 720H697L277 -22H192L612 720ZM125 611L134 692Q201 710 258 710Q408
710 408 609Q408 565 377 538T301 503V501Q377 475 377 415Q377 365 346 333T274 288T183 276Q96 276 40 301L56 375Q106 356 166 356Q203 356 232 370T261 412Q261 456 171 456H136L148 536Q292 536 292 595Q292 611 275 620T235 630Q169 630 125 611Z" />
<glyph unicode="&#xbf;" glyph-name="questiondown" horiz-adv-x="500" d="M222 310H344Q335 238 305 193T211 98Q189 81 176 69T152 36T140 -10Q140 -50 176 -70T257 -91Q324 -91 381 -66V-178Q298 -195 239 -195Q194 -195 153 -185T75 -155T16 -98T-6 -13Q-6
18 2 44T30 93T65 130T110 168T153 203Q218 260 222 310ZM248 515H388L359 375H219L248 515Z" />
<glyph unicode="&#xc0;" glyph-name="Agrave" horiz-adv-x="722" d="M538 738H453L324 884H457L538 738ZM432 574L264 270H480L436 574H432ZM-42 0L381 698H536L663 0H523L499 160H202L113 0H-42Z" />
<glyph unicode="&#xc1;" glyph-name="Aacute" horiz-adv-x="722" d="M404 738L485 884H618L490 738H404ZM432 574L264 270H480L436 574H432ZM-42 0L381 698H536L663 0H523L499 160H202L113 0H-42Z" />
<glyph unicode="&#xc2;" glyph-name="Acircumflex" horiz-adv-x="722" d="M432 574L264 270H480L436 574H432ZM-42 0L381 698H536L663 0H523L499 160H202L113 0H-42ZM414 738H314L443 884H558L633 738H544L494 831L414 738Z" />
<glyph unicode="&#xc3;" glyph-name="Atilde" horiz-adv-x="722" d="M611 884H662Q645 765 544 765Q519 765 473 785T409 805Q389 805 375 790T359 756H308Q328 877 424 877Q453 877 499 857T557 837Q580 837 592 848T611 884ZM432 574L264 270H480L436 574H432ZM-42
0L381 698H536L663 0H523L499 160H202L113 0H-42Z" />
<glyph unicode="&#xc4;" glyph-name="Adieresis" horiz-adv-x="722" d="M432 574L264 270H480L436 574H432ZM-42 0L381 698H536L663 0H523L499 160H202L113 0H-42ZM443 878L418 762H304L329 878H443ZM651 878L626 762H512L537 878H651Z" />
<glyph unicode="&#xc5;" glyph-name="Aring" horiz-adv-x="722" d="M584 830Q584 788 553 757T479 726T406 757T375 830T406 903T479 935Q522 935 553 904T584 830ZM479 881Q458 881 444 866T429 830Q429 808 443 794T479 780Q501 780 515 794T530 830T516 866T479
881ZM432 574L264 270H480L436 574H432ZM-42 0L381 698H536L663 0H523L499 160H202L113 0H-42Z" />
<glyph unicode="&#xc6;" glyph-name="AE" horiz-adv-x="944" d="M-42 0L461 698H948L926 582H677L651 416H863L841 306H634L604 110H828L804 0H452L477 160H230L113 0H-42ZM541 588L309 270H494L543 586L541 588Z" />
<glyph unicode="&#xc7;" glyph-name="Ccedilla" horiz-adv-x="611" d="M674 676L639 559Q579 600 479 600Q363 600 289 521T215 319Q215 228 270 163T414 98Q489 98 561 141L539 7Q471 -12 385 -12L374 -44Q415 -44 436 -53Q483 -69 483 -122Q483 -177 438 -199T331
-222Q275 -222 206 -191L223 -135Q272 -162 323 -162Q345 -162 365 -153T385 -123Q385 -104 368 -95T330 -86Q316 -86 303 -91L331 -9Q203 6 136 95T69 319Q69 491 178 600T469 710Q591 710 674 676Z" />
<glyph unicode="&#xc8;" glyph-name="Egrave" horiz-adv-x="556" d="M465 738H380L251 884H384L465 738ZM31 0L178 698H589L568 588H295L259 416H503L481 306H236L195 110H471L447 0H31Z" />
<glyph unicode="&#xc9;" glyph-name="Eacute" horiz-adv-x="556" d="M301 738L382 884H515L387 738H301ZM31 0L178 698H589L568 588H295L259 416H503L481 306H236L195 110H471L447 0H31Z" />
<glyph unicode="&#xca;" glyph-name="Ecircumflex" horiz-adv-x="556" d="M311 738H211L340 884H455L530 738H441L391 831L311 738ZM31 0L178 698H589L568 588H295L259 416H503L481 306H236L195 110H471L447 0H31Z" />
<glyph unicode="&#xcb;" glyph-name="Edieresis" horiz-adv-x="556" d="M31 0L178 698H589L568 588H295L259 416H503L481 306H236L195 110H471L447 0H31ZM340 878L315 762H201L226 878H340ZM548 878L523 762H409L434 878H548Z" />
<glyph unicode="&#xcc;" glyph-name="Igrave" horiz-adv-x="278" d="M316 738H231L102 884H235L316 738ZM17 0L164 698H310L163 0H17Z" />
<glyph unicode="&#xcd;" glyph-name="Iacute" horiz-adv-x="278" d="M182 738L263 884H396L268 738H182ZM17 0L164 698H310L163 0H17Z" />
<glyph unicode="&#xce;" glyph-name="Icircumflex" horiz-adv-x="278" d="M17 0L164 698H310L163 0H17ZM192 738H92L221 884H336L411 738H322L272 831L192 738Z" />
<glyph unicode="&#xcf;" glyph-name="Idieresis" horiz-adv-x="278" d="M17 0L164 698H310L163 0H17ZM221 878L196 762H82L107 878H221ZM429 878L404 762H290L315 878H429Z" />
<glyph unicode="&#xd0;" glyph-name="Eth" horiz-adv-x="722" d="M31 0L101 330H42L61 422H120L178 698H344Q424 698 484 685T595 642T673 554T700 413Q700 316 675 243T607 125T498 51T360 11T195 0H31ZM295 588L260 422H420L401 330H241L195 110H240Q389 110
471 181T554 398Q554 493 498 540T343 588H295Z" />
<glyph unicode="&#xd1;" glyph-name="Ntilde" horiz-adv-x="722" d="M611 884H662Q645 765 544 765Q519 765 473 785T409 805Q389 805 375 790T359 756H308Q328 877 424 877Q453 877 499 857T557 837Q580 837 592 848T611 884ZM25 0L175 698H352L501 168H503L617
698H749L598 0H418L272 535H270L159 0H25Z" />
<glyph unicode="&#xd2;" glyph-name="Ograve" horiz-adv-x="778" d="M566 738H481L352 884H485L566 738ZM466 710Q607 710 682 633T757 414Q757 236 640 105Q535 -12 344 -12Q218 -12 144 69T69 278Q69 451 179 580Q293 710 466 710ZM462 600Q404 600 356 569T277
488T231 382T215 270Q215 197 252 148T362 98Q437 98 496 152T583 281T611 429Q611 503 573 551T462 600Z" />
<glyph unicode="&#xd3;" glyph-name="Oacute" horiz-adv-x="778" d="M432 738L513 884H646L518 738H432ZM466 710Q607 710 682 633T757 414Q757 236 640 105Q535 -12 344 -12Q218 -12 144 69T69 278Q69 451 179 580Q293 710 466 710ZM462 600Q404 600 356 569T277
488T231 382T215 270Q215 197 252 148T362 98Q437 98 496 152T583 281T611 429Q611 503 573 551T462 600Z" />
<glyph unicode="&#xd4;" glyph-name="Ocircumflex" horiz-adv-x="778" d="M442 738H342L471 884H586L661 738H572L522 831L442 738ZM466 710Q607 710 682 633T757 414Q757 236 640 105Q535 -12 344 -12Q218 -12 144 69T69 278Q69 451 179 580Q293 710 466 710ZM462
600Q404 600 356 569T277 488T231 382T215 270Q215 197 252 148T362 98Q437 98 496 152T583 281T611 429Q611 503 573 551T462 600Z" />
<glyph unicode="&#xd5;" glyph-name="Otilde" horiz-adv-x="778" d="M639 884H690Q673 765 572 765Q547 765 501 785T437 805Q417 805 403 790T387 756H336Q356 877 452 877Q481 877 527 857T585 837Q608 837 620 848T639 884ZM466 710Q607 710 682 633T757 414Q757
236 640 105Q535 -12 344 -12Q218 -12 144 69T69 278Q69 451 179 580Q293 710 466 710ZM462 600Q404 600 356 569T277 488T231 382T215 270Q215 197 252 148T362 98Q437 98 496 152T583 281T611 429Q611 503 573 551T462 600Z" />
<glyph unicode="&#xd6;" glyph-name="Odieresis" horiz-adv-x="778" d="M466 710Q607 710 682 633T757 414Q757 236 640 105Q535 -12 344 -12Q218 -12 144 69T69 278Q69 451 179 580Q293 710 466 710ZM462 600Q404 600 356 569T277 488T231 382T215 270Q215 197
252 148T362 98Q437 98 496 152T583 281T611 429Q611 503 573 551T462 600ZM471 878L446 762H332L357 878H471ZM679 878L654 762H540L565 878H679Z" />
<glyph unicode="&#xd7;" glyph-name="multiply" horiz-adv-x="600" d="M243 253L81 415L153 487L315 325L477 487L549 415L386 253L549 91L477 19L315 182L153 19L81 91L243 253Z" />
<glyph unicode="&#xd8;" glyph-name="Oslash" horiz-adv-x="778" d="M237 172L539 580Q507 600 462 600Q404 600 356 569T277 488T231 382T215 270Q215 213 237 172ZM584 534L281 122Q315 98 362 98Q437 98 496 152T583 281T611 429Q611 490 584 534ZM688 783L740
745L667 646Q757 570 757 414Q757 236 640 105Q535 -12 344 -12Q266 -12 207 22L127 -86L76 -47L154 59Q69 138 69 278Q69 451 179 580Q293 710 466 710Q552 710 612 680L688 783Z" />
<glyph unicode="&#xd9;" glyph-name="Ugrave" horiz-adv-x="722" d="M606 738H521L392 884H525L606 738ZM243 698H383L312 367Q306 339 302 321T294 272T291 220T297 174T316 134T352 109T407 98Q437 98 462 106T504 126T537 159T560 198T578 245T591 293T603
344L679 698H817L724 276Q692 133 619 61T406 -12Q95 -12 163 319L243 698Z" />
<glyph unicode="&#xda;" glyph-name="Uacute" horiz-adv-x="722" d="M472 738L553 884H686L558 738H472ZM243 698H383L312 367Q306 339 302 321T294 272T291 220T297 174T316 134T352 109T407 98Q437 98 462 106T504 126T537 159T560 198T578 245T591 293T603
344L679 698H817L724 276Q692 133 619 61T406 -12Q95 -12 163 319L243 698Z" />
<glyph unicode="&#xdb;" glyph-name="Ucircumflex" horiz-adv-x="722" d="M482 738H382L511 884H626L701 738H612L562 831L482 738ZM243 698H383L312 367Q306 339 302 321T294 272T291 220T297 174T316 134T352 109T407 98Q437 98 462 106T504 126T537 159T560
198T578 245T591 293T603 344L679 698H817L724 276Q692 133 619 61T406 -12Q95 -12 163 319L243 698Z" />
<glyph unicode="&#xdc;" glyph-name="Udieresis" horiz-adv-x="722" d="M243 698H383L312 367Q306 339 302 321T294 272T291 220T297 174T316 134T352 109T407 98Q437 98 462 106T504 126T537 159T560 198T578 245T591 293T603 344L679 698H817L724 276Q692 133
619 61T406 -12Q95 -12 163 319L243 698ZM511 878L486 762H372L397 878H511ZM719 878L694 762H580L605 878H719Z" />
<glyph unicode="&#xdd;" glyph-name="Yacute" horiz-adv-x="667" d="M377 738L458 884H591L463 738H377ZM210 0L271 289L107 698H255L359 405L586 698H749L411 289L350 0H210Z" />
<glyph unicode="&#xde;" glyph-name="Thorn" horiz-adv-x="556" d="M192 149L161 0H21L167 698H307L283 582Q326 582 361 579T436 565T503 535T548 482T566 401Q566 280 481 215T271 149H192ZM259 472L214 259H264Q327 259 373 292T420 386Q420 472 303 472H259Z" />
<glyph unicode="&#xdf;" glyph-name="germandbls" horiz-adv-x="611" d="M21 0L134 544Q179 762 397 762Q483 762 548 720T613 599Q613 512 571 467T441 400V398Q502 386 537 348T573 252Q573 133 497 64T300 -6Q262 -6 206 8L227 118Q264 98 290 98Q363 98 398
146T433 254Q433 342 306 342L326 446Q392 446 432 481T473 581Q473 617 452 637T391 658Q363 658 342 649T308 625T285 586T269 541T256 488L155 0H21Z" />
<glyph unicode="&#xe0;" glyph-name="agrave" horiz-adv-x="556" d="M405 585H320L191 731H324L405 585ZM334 0L348 79H346Q309 33 271 11T180 -12Q108 -12 65 26T21 135Q21 184 42 219T95 273T172 302T255 315T337 318H384Q388 332 388 362Q388 398 358 413T285
429Q201 429 116 389L135 496Q223 527 310 527T453 490T510 368Q510 330 481 184T447 0H334ZM149 140Q149 114 169 100T217 86Q285 86 317 125T369 238H322Q149 238 149 140Z" />
<glyph unicode="&#xe1;" glyph-name="aacute" horiz-adv-x="556" d="M271 585L352 731H485L357 585H271ZM334 0L348 79H346Q309 33 271 11T180 -12Q108 -12 65 26T21 135Q21 184 42 219T95 273T172 302T255 315T337 318H384Q388 332 388 362Q388 398 358 413T285
429Q201 429 116 389L135 496Q223 527 310 527T453 490T510 368Q510 330 481 184T447 0H334ZM149 140Q149 114 169 100T217 86Q285 86 317 125T369 238H322Q149 238 149 140Z" />
<glyph unicode="&#xe2;" glyph-name="acircumflex" horiz-adv-x="556" d="M281 585H181L310 731H425L500 585H411L361 678L281 585ZM334 0L348 79H346Q309 33 271 11T180 -12Q108 -12 65 26T21 135Q21 184 42 219T95 273T172 302T255 315T337 318H384Q388 332
388 362Q388 398 358 413T285 429Q201 429 116 389L135 496Q223 527 310 527T453 490T510 368Q510 330 481 184T447 0H334ZM149 140Q149 114 169 100T217 86Q285 86 317 125T369 238H322Q149 238 149 140Z" />
<glyph unicode="&#xe3;" glyph-name="atilde" horiz-adv-x="556" d="M478 731H529Q512 612 411 612Q386 612 340 632T276 652Q256 652 242 637T226 603H175Q195 724 291 724Q320 724 366 704T424 684Q447 684 459 695T478 731ZM334 0L348 79H346Q309 33 271 11T180
-12Q108 -12 65 26T21 135Q21 184 42 219T95 273T172 302T255 315T337 318H384Q388 332 388 362Q388 398 358 413T285 429Q201 429 116 389L135 496Q223 527 310 527T453 490T510 368Q510 330 481 184T447 0H334ZM149 140Q149 114 169 100T217 86Q285 86 317 125T369
238H322Q149 238 149 140Z" />
<glyph unicode="&#xe4;" glyph-name="adieresis" horiz-adv-x="556" d="M334 0L348 79H346Q309 33 271 11T180 -12Q108 -12 65 26T21 135Q21 184 42 219T95 273T172 302T255 315T337 318H384Q388 332 388 362Q388 398 358 413T285 429Q201 429 116 389L135 496Q223
527 310 527T453 490T510 368Q510 330 481 184T447 0H334ZM149 140Q149 114 169 100T217 86Q285 86 317 125T369 238H322Q149 238 149 140ZM310 725L285 609H171L196 725H310ZM518 725L493 609H379L404 725H518Z" />
<glyph unicode="&#xe5;" glyph-name="aring" horiz-adv-x="556" d="M485 687Q485 645 454 614T380 583T307 614T276 687T307 760T380 792Q423 792 454 761T485 687ZM380 738Q359 738 345 723T330 687Q330 665 344 651T380 637Q402 637 416 651T431 687T417 723T380
738ZM334 0L348 79H346Q309 33 271 11T180 -12Q108 -12 65 26T21 135Q21 184 42 219T95 273T172 302T255 315T337 318H384Q388 332 388 362Q388 398 358 413T285 429Q201 429 116 389L135 496Q223 527 310 527T453 490T510 368Q510 330 481 184T447 0H334ZM149
140Q149 114 169 100T217 86Q285 86 317 125T369 238H322Q149 238 149 140Z" />
<glyph unicode="&#xe6;" glyph-name="ae" horiz-adv-x="889" d="M123 389L142 498Q232 527 315 527Q346 527 370 524T420 512T463 483T487 434H489Q541 527 664 527Q760 527 814 477T869 332Q869 276 855 216H515Q512 86 641 86Q705 86 786 120L766 14Q690 -12
603 -12Q538 -12 493 12T416 95Q362 -12 194 -12Q112 -12 67 26T21 139Q21 318 327 318H396Q399 331 399 348Q399 429 291 429Q206 429 123 389ZM149 148Q149 117 172 102T232 86Q296 86 330 127T386 238H334Q310 238 298 238T259 235T217 227T184 212T158 187T149
148ZM528 308H737Q741 334 741 349Q741 388 722 411T665 435Q614 435 577 398T528 308Z" />
<glyph unicode="&#xe7;" glyph-name="ccedilla" horiz-adv-x="444" d="M479 507L446 397Q406 423 348 423Q272 423 227 364T181 226Q181 92 295 92Q350 92 404 118L389 12Q345 -9 281 -11L270 -44Q311 -44 332 -53Q379 -69 379 -122Q379 -177 334 -199T227 -222Q171
-222 102 -191L119 -135Q168 -162 219 -162Q241 -162 261 -153T281 -123Q281 -104 264 -95T226 -86Q212 -86 199 -91L227 -9Q141 1 91 60T41 210Q41 347 124 437T345 527Q414 527 479 507Z" />
<glyph unicode="&#xe8;" glyph-name="egrave" horiz-adv-x="556" d="M435 585H350L221 731H354L435 585ZM523 216H160Q160 147 196 117T303 86Q381 86 461 123L444 17Q350 -12 280 -12Q165 -12 99 45T32 213Q32 337 117 432T325 527Q423 527 479 477T536 331Q536
278 523 216ZM178 308H405Q408 326 408 343Q408 429 323 429Q265 429 233 398T178 308Z" />
<glyph unicode="&#xe9;" glyph-name="eacute" horiz-adv-x="556" d="M271 585L352 731H485L357 585H271ZM523 216H160Q160 147 196 117T303 86Q381 86 461 123L444 17Q350 -12 280 -12Q165 -12 99 45T32 213Q32 337 117 432T325 527Q423 527 479 477T536 331Q536
278 523 216ZM178 308H405Q408 326 408 343Q408 429 323 429Q265 429 233 398T178 308Z" />
<glyph unicode="&#xea;" glyph-name="ecircumflex" horiz-adv-x="556" d="M281 585H181L310 731H425L500 585H411L361 678L281 585ZM523 216H160Q160 147 196 117T303 86Q381 86 461 123L444 17Q350 -12 280 -12Q165 -12 99 45T32 213Q32 337 117 432T325 527Q423
527 479 477T536 331Q536 278 523 216ZM178 308H405Q408 326 408 343Q408 429 323 429Q265 429 233 398T178 308Z" />
<glyph unicode="&#xeb;" glyph-name="edieresis" horiz-adv-x="556" d="M523 216H160Q160 147 196 117T303 86Q381 86 461 123L444 17Q350 -12 280 -12Q165 -12 99 45T32 213Q32 337 117 432T325 527Q423 527 479 477T536 331Q536 278 523 216ZM178 308H405Q408
326 408 343Q408 429 323 429Q265 429 233 398T178 308ZM310 725L285 609H171L196 725H310ZM518 725L493 609H379L404 725H518Z" />
<glyph unicode="&#xec;" glyph-name="igrave" horiz-adv-x="278" d="M267 585H182L53 731H186L267 585ZM21 0L131 515H265L155 0H21Z" />
<glyph unicode="&#xed;" glyph-name="iacute" horiz-adv-x="278" d="M132 585L213 731H346L218 585H132ZM21 0L131 515H265L155 0H21Z" />
<glyph unicode="&#xee;" glyph-name="icircumflex" horiz-adv-x="278" d="M21 0L131 515H265L155 0H21ZM142 585H42L171 731H286L361 585H272L222 678L142 585Z" />
<glyph unicode="&#xef;" glyph-name="idieresis" horiz-adv-x="278" d="M21 0L131 515H265L155 0H21ZM171 725L146 609H32L57 725H171ZM379 725L354 609H240L265 725H379Z" />
<glyph unicode="&#xf0;" glyph-name="eth" horiz-adv-x="611" d="M340 411Q266 411 224 351T181 213Q181 158 206 125T286 92Q358 92 400 159T442 300Q442 348 419 379T340 411ZM512 762L565 703L457 654Q582 523 582 321Q582 164 496 76T275 -12Q166 -12 104
50T41 223Q41 350 124 432T324 515Q388 515 430 488H432Q392 560 350 605L246 558L192 618L288 661Q261 682 222 702L317 762Q365 735 396 710L512 762Z" />
<glyph unicode="&#xf1;" glyph-name="ntilde" horiz-adv-x="611" d="M506 731H557Q540 612 439 612Q414 612 368 632T304 652Q284 652 270 637T254 603H203Q223 724 319 724Q348 724 394 704T452 684Q475 684 487 695T506 731ZM21 0L116 441Q127 496 129 515H260L251
465H253Q320 527 399 527Q475 527 521 483T567 362Q567 328 550 250L496 0H362L412 243Q427 318 427 351Q427 383 407 403T354 423Q246 423 210 259L155 0H21Z" />
<glyph unicode="&#xf2;" glyph-name="ograve" horiz-adv-x="611" d="M433 585H348L219 731H352L433 585ZM286 92Q335 92 372 126T425 207T442 300Q442 423 340 423Q290 423 253 389T198 309T181 213Q181 92 286 92ZM346 527Q452 527 517 467T582 301Q582 164 497
76T275 -12Q166 -12 104 51T41 223Q41 352 128 439T346 527Z" />
<glyph unicode="&#xf3;" glyph-name="oacute" horiz-adv-x="611" d="M297 585L378 731H511L383 585H297ZM286 92Q335 92 372 126T425 207T442 300Q442 423 340 423Q290 423 253 389T198 309T181 213Q181 92 286 92ZM346 527Q452 527 517 467T582 301Q582 164 497
76T275 -12Q166 -12 104 51T41 223Q41 352 128 439T346 527Z" />
<glyph unicode="&#xf4;" glyph-name="ocircumflex" horiz-adv-x="611" d="M286 92Q335 92 372 126T425 207T442 300Q442 423 340 423Q290 423 253 389T198 309T181 213Q181 92 286 92ZM346 527Q452 527 517 467T582 301Q582 164 497 76T275 -12Q166 -12 104 51T41
223Q41 352 128 439T346 527ZM309 585H209L338 731H453L528 585H439L389 678L309 585Z" />
<glyph unicode="&#xf5;" glyph-name="otilde" horiz-adv-x="611" d="M506 731H557Q540 612 439 612Q414 612 368 632T304 652Q284 652 270 637T254 603H203Q223 724 319 724Q348 724 394 704T452 684Q475 684 487 695T506 731ZM286 92Q335 92 372 126T425 207T442
300Q442 423 340 423Q290 423 253 389T198 309T181 213Q181 92 286 92ZM346 527Q452 527 517 467T582 301Q582 164 497 76T275 -12Q166 -12 104 51T41 223Q41 352 128 439T346 527Z" />
<glyph unicode="&#xf6;" glyph-name="odieresis" horiz-adv-x="611" d="M286 92Q335 92 372 126T425 207T442 300Q442 423 340 423Q290 423 253 389T198 309T181 213Q181 92 286 92ZM346 527Q452 527 517 467T582 301Q582 164 497 76T275 -12Q166 -12 104 51T41
223Q41 352 128 439T346 527ZM338 725L313 609H199L224 725H338ZM546 725L521 609H407L432 725H546Z" />
<glyph unicode="&#xf7;" glyph-name="divide" horiz-adv-x="600" d="M569 201H61V305H569V201ZM346 375T315 375T261 398T238 452T261 506T315 529T369 507T392 452T369 398ZM284 131T315 131T369 109T392 54T369 0T315 -23T261 0T238 54T261 108Z" />
<glyph unicode="&#xf8;" glyph-name="oslash" horiz-adv-x="611" d="M428 374L229 107Q251 92 286 92Q335 92 372 126T425 207T442 300Q442 343 428 374ZM192 150L388 413Q371 423 340 423Q290 423 253 389T198 309T181 213Q181 178 192 150ZM517 587L562 554L504
476Q582 416 582 301Q582 164 497 76T275 -12Q206 -12 159 13L91 -78L46 -45L112 43Q41 106 41 223Q41 352 128 439T346 527Q409 527 456 505L517 587Z" />
<glyph unicode="&#xf9;" glyph-name="ugrave" horiz-adv-x="611" d="M433 585H348L219 731H352L433 585ZM600 515L505 74Q494 19 492 0H361L370 50H368Q301 -12 222 -12Q146 -12 100 32T54 153Q54 187 71 265L125 515H259L209 272Q194 197 194 164Q194 132 214
112T267 92Q375 92 411 256L466 515H600Z" />
<glyph unicode="&#xfa;" glyph-name="uacute" horiz-adv-x="611" d="M299 585L380 731H513L385 585H299ZM600 515L505 74Q494 19 492 0H361L370 50H368Q301 -12 222 -12Q146 -12 100 32T54 153Q54 187 71 265L125 515H259L209 272Q194 197 194 164Q194 132 214
112T267 92Q375 92 411 256L466 515H600Z" />
<glyph unicode="&#xfb;" glyph-name="ucircumflex" horiz-adv-x="611" d="M309 585H209L338 731H453L528 585H439L389 678L309 585ZM600 515L505 74Q494 19 492 0H361L370 50H368Q301 -12 222 -12Q146 -12 100 32T54 153Q54 187 71 265L125 515H259L209 272Q194
197 194 164Q194 132 214 112T267 92Q375 92 411 256L466 515H600Z" />
<glyph unicode="&#xfc;" glyph-name="udieresis" horiz-adv-x="611" d="M600 515L505 74Q494 19 492 0H361L370 50H368Q301 -12 222 -12Q146 -12 100 32T54 153Q54 187 71 265L125 515H259L209 272Q194 197 194 164Q194 132 214 112T267 92Q375 92 411 256L466
515H600ZM338 725L313 609H199L224 725H338ZM546 725L521 609H407L432 725H546Z" />
<glyph unicode="&#xfd;" glyph-name="yacute" horiz-adv-x="556" d="M271 585L352 731H485L357 585H271ZM66 515H203L251 132H253L458 515H605L256 -78Q230 -122 209 -148T146 -198T51 -222Q2 -222 -49 -208L-19 -106Q13 -118 40 -118Q71 -118 97 -98T157 -25L66 515Z" />
<glyph unicode="&#xfe;" glyph-name="thorn" horiz-adv-x="611" d="M169 80L110 -210H-24L177 750H311L248 459H250Q265 484 303 505T392 527Q485 527 533 470T581 318Q581 234 553 161T461 38T313 -12Q199 -12 171 80H169ZM441 313Q441 362 417 392T347 423Q284
423 245 356T205 213Q205 159 226 126T293 92Q345 92 380 132T428 219T441 313Z" />
<glyph unicode="&#xff;" glyph-name="ydieresis" horiz-adv-x="556" d="M66 515H203L251 132H253L458 515H605L256 -78Q230 -122 209 -148T146 -198T51 -222Q2 -222 -49 -208L-19 -106Q13 -118 40 -118Q71 -118 97 -98T157 -25L66 515ZM310 725L285 609H171L196
725H310ZM518 725L493 609H379L404 725H518Z" />
<glyph unicode="&#x100;" glyph-name="Amacron" horiz-adv-x="722" d="M316 773L332 853H629L614 773H316ZM432 574L264 270H480L436 574H432ZM-42 0L381 698H536L663 0H523L499 160H202L113 0H-42Z" />
<glyph unicode="&#x101;" glyph-name="amacron" horiz-adv-x="556" d="M185 618L201 698H498L483 618H185ZM334 0L348 79H346Q309 33 271 11T180 -12Q108 -12 65 26T21 135Q21 184 42 219T95 273T172 302T255 315T337 318H384Q388 332 388 362Q388 398 358 413T285
429Q201 429 116 389L135 496Q223 527 310 527T453 490T510 368Q510 330 481 184T447 0H334ZM149 140Q149 114 169 100T217 86Q285 86 317 125T369 238H322Q149 238 149 140Z" />
<glyph unicode="&#x102;" glyph-name="Abreve" horiz-adv-x="722" d="M319 886H381Q392 807 473 806Q555 807 583 886H645Q637 819 586 777T467 734T360 774T319 886ZM432 574L264 270H480L436 574H432ZM-42 0L381 698H536L663 0H523L499 160H202L113 0H-42Z" />
<glyph unicode="&#x103;" glyph-name="abreve" horiz-adv-x="556" d="M175 723H245Q247 696 259 680Q280 650 330 650Q379 650 408 675Q426 692 440 723H512Q499 672 467 635Q417 578 335 578Q249 578 209 621Q175 659 175 723ZM334 0L348 79H346Q309 33 271 11T180
-12Q108 -12 65 26T21 135Q21 184 42 219T95 273T172 302T255 315T337 318H384Q388 332 388 362Q388 398 358 413T285 429Q201 429 116 389L135 496Q223 527 310 527T453 490T510 368Q510 330 481 184T447 0H334ZM149 140Q149 114 169 100T217 86Q285 86 317 125T369
238H322Q149 238 149 140Z" />
<glyph unicode="&#x104;" glyph-name="Aogonek" horiz-adv-x="722" d="M663 0H617Q485 -79 485 -129Q485 -162 520 -162Q552 -162 581 -134L619 -148Q576 -222 488 -222Q453 -222 426 -207T399 -157Q402 -115 434 -80T549 0H523L499 160H202L113 0H-42L381 698H536L663
0ZM432 574L264 270H480L436 574H432Z" />
<glyph unicode="&#x105;" glyph-name="aogonek" horiz-adv-x="556" d="M447 0H424Q292 -79 292 -129Q292 -162 327 -162Q359 -162 388 -134L426 -148Q383 -222 295 -222Q260 -222 233 -207T206 -157Q209 -115 241 -80T356 0H334L348 79H346Q308 32 271 10T180
-12Q108 -12 65 26T21 135Q21 184 42 219T94 273T172 302T254 315T337 318H384Q388 333 388 362Q388 398 358 413T285 429Q201 429 116 389L135 496Q223 527 310 527T453 490T510 368Q510 330 481 184T447 0ZM149 140Q149 114 169 100T217 86Q285 86 317 125T369
238H322Q149 238 149 140Z" />
<glyph unicode="&#x106;" glyph-name="Cacute" horiz-adv-x="611" d="M412 740L493 886H626L498 740H412ZM674 676L639 559Q579 600 479 600Q363 600 289 521T215 319Q215 228 270 163T414 98Q489 98 561 141L539 7Q470 -12 381 -12Q228 -12 149 79T69 319Q69
491 178 600T469 710Q591 710 674 676Z" />
<glyph unicode="&#x107;" glyph-name="cacute" horiz-adv-x="444" d="M285 585L366 731H499L371 585H285ZM479 507L446 397Q406 423 348 423Q272 423 227 364T181 226Q181 92 295 92Q350 92 404 118L389 12Q340 -12 260 -12Q161 -12 101 49T41 210Q41 347 124
437T345 527Q414 527 479 507Z" />
<glyph unicode="&#x10c;" glyph-name="Ccaron" horiz-adv-x="611" d="M668 886L539 740H424L349 886H438L488 794L568 886H668ZM674 676L639 559Q579 600 479 600Q363 600 289 521T215 319Q215 228 270 163T414 98Q489 98 561 141L539 7Q470 -12 381 -12Q228 -12
149 79T69 319Q69 491 178 600T469 710Q591 710 674 676Z" />
<glyph unicode="&#x10d;" glyph-name="ccaron" horiz-adv-x="444" d="M529 731L400 585H285L210 731H299L349 639L429 731H529ZM479 507L446 397Q406 423 348 423Q272 423 227 364T181 226Q181 92 295 92Q350 92 404 118L389 12Q340 -12 260 -12Q161 -12 101 49T41
210Q41 347 124 437T345 527Q414 527 479 507Z" />
<glyph unicode="&#x10e;" glyph-name="Dcaron" horiz-adv-x="722" d="M593 886L464 740H349L274 886H363L413 794L493 886H593ZM295 588L195 110H260Q408 110 481 191T554 420Q554 500 497 544T343 588H295ZM31 0L178 698H388Q448 698 499 685T597 641T672 548T700
400Q700 347 689 296T648 190T572 94T446 27T266 0H31Z" />
<glyph unicode="&#x10f;" glyph-name="dcaron" horiz-adv-x="688" d="M665 532L723 731H838L739 532H665ZM524 750H658L519 114Q503 26 500 0H375L388 76H386Q323 -12 218 -12Q131 -12 86 49T41 202Q41 261 57 318T104 422T186 498T300 527Q395 527 459 454L524
750ZM322 423Q277 423 244 386T196 303T181 214Q181 184 187 159T212 113T263 92Q332 92 375 157T419 301Q419 351 395 387T322 423Z" />
<glyph unicode="&#x110;" glyph-name="Dcroat" horiz-adv-x="722" d="M295 588L260 422H420L401 330H241L195 110H240Q389 110 471 181T554 398Q554 493 498 540T343 588H295ZM31 0L101 330H42L61 422H120L178 698H344Q423 698 483 685T595 642T673 554T700 413Q700
316 675 243T607 125T498 51T360 11T195 0H170H31Z" />
<glyph unicode="&#x111;" glyph-name="" horiz-adv-x="611" d="M524 750H658L640 669H727L711 596H624L519 114Q503 24 500 0H375L388 76H386Q323 -12 218 -12Q131 -12 86 49T41 202Q41 283 68 355T156 477T300 527Q394 527 459 454L490 596H324L340 669H506L524
750ZM322 423Q277 423 244 386T196 302T181 214Q181 164 199 128T263 92Q333 92 376 157T419 301Q419 351 395 387T322 423Z" />
<glyph unicode="&#x112;" glyph-name="Emacron" horiz-adv-x="556" d="M241 773L257 853H554L539 773H241ZM31 0L178 698H589L568 588H295L259 416H503L481 306H236L195 110H471L447 0H31Z" />
<glyph unicode="&#x113;" glyph-name="emacron" horiz-adv-x="556" d="M190 618L206 698H503L488 618H190ZM523 216H160Q160 147 196 117T303 86Q381 86 461 123L444 17Q350 -12 280 -12Q165 -12 99 45T32 213Q32 337 117 432T325 527Q423 527 479 477T536 331Q536
278 523 216ZM178 308H405Q408 326 408 343Q408 429 323 429Q265 429 233 398T178 308Z" />
<glyph unicode="&#x116;" glyph-name="Edotaccent" horiz-adv-x="556" d="M474 880L449 764H335L360 880H474ZM31 0L178 698H589L568 588H295L259 416H503L481 306H236L195 110H471L447 0H31Z" />
<glyph unicode="&#x117;" glyph-name="edotaccent" horiz-adv-x="556" d="M418 725L393 609H279L304 725H418ZM523 216H160Q160 147 196 117T303 86Q381 86 461 123L444 17Q350 -12 280 -12Q165 -12 99 45T32 213Q32 337 117 432T325 527Q423 527 479 477T536
331Q536 278 523 216ZM178 308H405Q408 326 408 343Q408 429 323 429Q265 429 233 398T178 308Z" />
<glyph unicode="&#x118;" glyph-name="Eogonek" horiz-adv-x="556" d="M447 0H404Q272 -79 272 -129Q272 -162 307 -162Q339 -162 368 -134L406 -148Q363 -222 275 -222Q240 -222 213 -207T186 -157Q189 -115 221 -80T336 0H174H31L178 698H319H589L568 588H295L259
416H503L481 306H236L195 110H471L447 0Z" />
<glyph unicode="&#x119;" glyph-name="eogonek" horiz-adv-x="556" d="M523 216H160Q160 146 195 116T303 86Q379 86 461 123L444 17Q401 4 363 -3Q331 -9 315 -10Q257 -48 232 -74Q201 -106 201 -129Q201 -162 236 -162Q268 -162 297 -134L335 -148Q292 -222
204 -222Q169 -222 142 -207T115 -157Q115 -128 133 -102T193 -43Q212 -28 244 -10Q213 -7 178 1Q109 23 71 76T32 213Q32 337 117 432T325 527Q423 527 479 477T536 331Q536 279 523 216ZM178 308H405Q408 326 408 343Q408 429 323 429Q265 429 232 398T178 308Z"
/>
<glyph unicode="&#x11a;" glyph-name="Ecaron" horiz-adv-x="556" d="M572 886L443 740H328L253 886H342L392 794L472 886H572ZM31 0L178 698H589L568 588H295L259 416H503L481 306H236L195 110H471L447 0H31Z" />
<glyph unicode="&#x11b;" glyph-name="ecaron" horiz-adv-x="556" d="M532 731L403 585H288L213 731H302L352 639L432 731H532ZM523 216H160Q160 147 196 117T303 86Q381 86 461 123L444 17Q350 -12 280 -12Q165 -12 99 45T32 213Q32 337 117 432T325 527Q423
527 479 477T536 331Q536 278 523 216ZM178 308H405Q408 326 408 343Q408 429 323 429Q265 429 233 398T178 308Z" />
<glyph unicode="&#x11e;" glyph-name="Gbreve" horiz-adv-x="722" d="M343 886H405Q416 807 497 806Q579 807 607 886H669Q661 819 610 777T491 734T384 774T343 886ZM726 671L691 550Q614 600 497 600Q372 600 296 515T220 302Q220 215 274 157T417 98Q470 98
486 105L525 290H377L400 400H683L603 19Q528 -12 416 -12Q256 -12 165 64T74 298Q74 488 188 599T493 710Q624 710 726 671Z" />
<glyph unicode="&#x11f;" glyph-name="gbreve" horiz-adv-x="611" d="M201 723H271Q273 696 285 680Q306 650 356 650Q405 650 434 675Q452 692 466 723H538Q525 672 493 635Q443 578 361 578Q275 578 235 621Q201 659 201 723ZM5 -187L39 -78Q135 -118 201 -118Q305
-118 349 -39Q368 -6 396 98H394Q369 52 323 26T221 0Q133 0 88 63T42 218Q42 342 113 434T303 527Q408 527 460 440L475 515H604Q597 492 587 443L505 56Q478 -80 411 -151T211 -222Q97 -222 5 -187ZM418 315Q418 362 392 392T321 423T243 387T196 307T182 219Q182
169 203 137T267 104Q341 104 379 168T418 315Z" />
<glyph unicode="&#x122;" glyph-name="Gcommaaccent" horiz-adv-x="722" d="M438 -66L348 -222H248L311 -66H438ZM726 671L691 550Q614 600 497 600Q372 600 296 515T220 302Q220 215 274 157T417 98Q470 98 486 105L525 290H377L400 400H683L603 19Q528 -12 416
-12Q256 -12 165 64T74 298Q74 488 188 599T493 710Q624 710 726 671Z" />
<glyph unicode="&#x123;" glyph-name="gcommaaccent" horiz-adv-x="611" d="M282 585L367 731H464L404 585H282ZM5 -187L39 -78Q135 -118 201 -118Q305 -118 349 -39Q368 -6 396 98H394Q369 52 323 26T221 0Q133 0 88 63T42 218Q42 342 113 434T303 527Q408 527
460 440L475 515H604Q597 492 587 443L505 56Q478 -80 411 -151T211 -222Q97 -222 5 -187ZM418 315Q418 362 392 392T321 423T243 387T196 307T182 219Q182 169 203 137T267 104Q341 104 379 168T418 315Z" />
<glyph unicode="&#x12a;" glyph-name="Imacron" horiz-adv-x="278" d="M95 773L111 853H408L393 773H95ZM17 0L164 698H310L163 0H17Z" />
<glyph unicode="&#x12b;" glyph-name="imacron" horiz-adv-x="278" d="M63 618L79 698H376L361 618H63ZM21 0L131 515H265L155 0H21Z" />
<glyph unicode="&#x12e;" glyph-name="Iogonek" horiz-adv-x="278" d="M310 698L163 0Q31 -79 31 -129Q31 -162 66 -162Q98 -162 127 -134L165 -148Q122 -222 34 -222Q-1 -222 -28 -207T-55 -157Q-52 -115 -20 -80T95 0H17L164 698H310Z" />
<glyph unicode="&#x12f;" glyph-name="iogonek" horiz-adv-x="278" d="M155 0H156Q24 -79 24 -129Q24 -162 59 -162Q91 -162 120 -134L158 -148Q115 -222 27 -222Q-8 -222 -35 -207T-62 -157Q-59 -115 -27 -80T88 0H21L131 515H265L155 0ZM152 609L180 737H314L286
609H152Z" />
<glyph unicode="&#x130;" glyph-name="Idot" horiz-adv-x="278" d="M330 880L305 764H191L216 880H330ZM17 0L164 698H310L163 0H17Z" />
<glyph unicode="&#x131;" glyph-name="dotlessi" horiz-adv-x="278" d="M21 0L131 515H265L155 0H21Z" />
<glyph unicode="&#x136;" glyph-name="Kcommaaccent" horiz-adv-x="667" d="M366 -66L276 -222H176L239 -66H366ZM181 698H321L262 424H264L541 698H736L383 380L608 0H441L247 355L171 0H31L181 698Z" />
<glyph unicode="&#x137;" glyph-name="kcommaaccent" horiz-adv-x="556" d="M321 -66L231 -222H131L194 -66H321ZM21 0L180 750H314L225 328H227L414 515H588L341 280L496 0H345L212 273H210L152 0H21Z" />
<glyph unicode="&#x139;" glyph-name="Lacute" horiz-adv-x="500" d="M195 740L276 886H409L281 740H195ZM23 0L171 698H311L186 110H460L436 0H23Z" />
<glyph unicode="&#x13a;" glyph-name="lacute" horiz-adv-x="278" d="M187 780L268 926H401L273 780H187ZM21 0L180 750H314L155 0H21Z" />
<glyph unicode="&#x13b;" glyph-name="Lcommaaccent" horiz-adv-x="500" d="M297 -66L207 -222H107L170 -66H297ZM23 0L171 698H311L186 110H460L436 0H23Z" />
<glyph unicode="&#x13c;" glyph-name="lcommaaccent" horiz-adv-x="278" d="M140 -66L50 -222H-50L13 -66H140ZM21 0L180 750H314L155 0H21Z" />
<glyph unicode="&#x13d;" glyph-name="Lcaron" horiz-adv-x="500" d="M356 532L414 731H529L430 532H356ZM23 0L171 698H311L186 110H460L436 0H23Z" />
<glyph unicode="&#x13e;" glyph-name="lcaron" horiz-adv-x="353" d="M321 532L379 731H494L395 532H321ZM21 0L180 750H314L155 0H21Z" />
<glyph unicode="&#x141;" glyph-name="Lslash" horiz-adv-x="500" d="M26 0L77 243L-6 199L14 291L96 335L171 698H311L253 418L442 518L423 426L234 326L189 110H460L437 0H26Z" />
<glyph unicode="&#x142;" glyph-name="lslash" horiz-adv-x="278" d="M21 0L82 293L1 250L20 342L101 385L177 750H311L252 465L333 508L313 416L233 373L155 0H21Z" />
<glyph unicode="&#x143;" glyph-name="Nacute" horiz-adv-x="722" d="M410 740L491 886H624L496 740H410ZM25 0L175 698H352L501 168H503L617 698H749L598 0H418L272 535H270L159 0H25Z" />
<glyph unicode="&#x144;" glyph-name="nacute" horiz-adv-x="611" d="M310 585L391 731H524L396 585H310ZM21 0L116 441Q127 496 129 515H260L251 465H253Q320 527 399 527Q475 527 521 483T567 362Q567 328 550 250L496 0H362L412 243Q427 318 427 351Q427 383
407 403T354 423Q246 423 210 259L155 0H21Z" />
<glyph unicode="&#x145;" glyph-name="Ncommaaccent" horiz-adv-x="722" d="M394 -66L304 -222H204L267 -66H394ZM25 0L175 698H352L501 168H503L617 698H749L598 0H418L272 535H270L159 0H25Z" />
<glyph unicode="&#x146;" glyph-name="ncommaaccent" horiz-adv-x="611" d="M325 -66L235 -222H135L198 -66H325ZM21 0L116 441Q127 496 129 515H260L251 465H253Q320 527 399 527Q475 527 521 483T567 362Q567 328 550 250L496 0H362L412 243Q427 318 427 351Q427
383 407 403T354 423Q246 423 210 259L155 0H21Z" />
<glyph unicode="&#x147;" glyph-name="Ncaron" horiz-adv-x="722" d="M655 886L526 740H411L336 886H425L475 794L555 886H655ZM25 0L175 698H352L501 168H503L617 698H749L598 0H418L272 535H270L159 0H25Z" />
<glyph unicode="&#x148;" glyph-name="ncaron" horiz-adv-x="611" d="M560 731L431 585H316L241 731H330L380 639L460 731H560ZM21 0L116 441Q127 496 129 515H260L251 465H253Q320 527 399 527Q475 527 521 483T567 362Q567 328 550 250L496 0H362L412 243Q427
318 427 351Q427 383 407 403T354 423Q246 423 210 259L155 0H21Z" />
<glyph unicode="&#x14c;" glyph-name="Omacron" horiz-adv-x="778" d="M345 773L361 853H658L643 773H345ZM466 710Q607 710 682 633T757 414Q757 236 640 105Q535 -12 344 -12Q218 -12 144 69T69 278Q69 451 179 580Q293 710 466 710ZM462 600Q404 600 356 569T277
488T231 382T215 270Q215 197 252 148T362 98Q437 98 496 152T583 281T611 429Q611 503 573 551T462 600Z" />
<glyph unicode="&#x14d;" glyph-name="omacron" horiz-adv-x="611" d="M218 618L234 698H531L516 618H218ZM286 92Q335 92 372 126T425 207T442 300Q442 423 340 423Q290 423 253 389T198 309T181 213Q181 92 286 92ZM346 527Q452 527 517 467T582 301Q582 164
497 76T275 -12Q166 -12 104 51T41 223Q41 352 128 439T346 527Z" />
<glyph unicode="&#x150;" glyph-name="Ohungarumlaut" horiz-adv-x="778" d="M597 886H730L602 740H516L597 886ZM400 886H533L405 740H319L400 886ZM466 710Q607 710 682 633T757 414Q757 236 640 105Q535 -12 344 -12Q218 -12 144 69T69 278Q69 451 179 580Q293
710 466 710ZM462 600Q404 600 356 569T277 488T231 382T215 270Q215 197 252 148T362 98Q437 98 496 152T583 281T611 429Q611 503 573 551T462 600Z" />
<glyph unicode="&#x151;" glyph-name="ohungarumlaut" horiz-adv-x="611" d="M287 731H420L292 585H206L287 731ZM484 731H617L489 585H403L484 731ZM286 92Q335 92 372 126T425 207T442 300Q442 423 340 423Q290 423 253 389T198 309T181 213Q181 92 286 92ZM346
527Q452 527 517 467T582 301Q582 164 497 76T275 -12Q166 -12 104 51T41 223Q41 352 128 439T346 527Z" />
<glyph unicode="&#x152;" glyph-name="OE" horiz-adv-x="944" d="M839 0H578Q492 0 441 -3Q426 -3 400 -4T364 -6Q229 -6 149 82T69 305Q69 483 179 593T476 704Q530 704 584 701Q692 698 707 698H979L957 588H699L663 416H896L874 306H640L599 110H862L839 0ZM458
110L558 588Q526 594 487 594Q366 594 291 511T215 305Q215 215 263 160T398 104Q428 104 458 110Z" />
<glyph unicode="&#x153;" glyph-name="oe" horiz-adv-x="944" d="M910 216H570Q567 86 696 86Q760 86 841 120L821 14Q745 -12 658 -12Q525 -12 480 84Q449 35 392 12T275 -12Q166 -12 104 51T41 223Q41 351 126 439T332 527Q487 527 530 431Q570 484 612 505T719
527Q815 527 869 477T924 332Q924 276 910 216ZM181 215Q181 86 280 86Q354 86 395 155T436 306Q436 360 412 394T342 429Q290 429 252 393T197 309T181 215ZM583 308H792Q796 334 796 349Q796 388 777 411T720 435Q669 435 632 398T583 308Z" />
<glyph unicode="&#x154;" glyph-name="Racute" horiz-adv-x="611" d="M316 740L397 886H530L402 740H316ZM21 0L167 698H332Q363 698 376 698T418 697T462 693T500 685T537 671T566 650T590 621T604 583T610 533Q610 446 553 398T406 347V345Q463 342 477 281L544
0H397L363 164Q361 175 357 198T350 230T342 254T328 274T307 285T275 290H222L161 0H21ZM286 588L247 400H298Q341 400 375 409T437 445T464 515Q464 536 457 550T439 572T410 583T379 587T344 588H286Z" />
<glyph unicode="&#x155;" glyph-name="racute" horiz-adv-x="389" d="M239 585L320 731H453L325 585H239ZM21 0L113 446L125 515H253L235 418H237Q256 461 300 494T389 527Q420 527 440 522L412 391Q388 399 361 399Q295 399 257 351T203 231L155 0H21Z" />
<glyph unicode="&#x156;" glyph-name="Rcommaaccent" horiz-adv-x="611" d="M341 -66L251 -222H151L214 -66H341ZM21 0L167 698H332Q363 698 376 698T418 697T462 693T500 685T537 671T566 650T590 621T604 583T610 533Q610 446 553 398T406 347V345Q463 342 477
281L544 0H397L363 164Q361 175 357 198T350 230T342 254T328 274T307 285T275 290H222L161 0H21ZM286 588L247 400H298Q341 400 375 409T437 445T464 515Q464 536 457 550T439 572T410 583T379 587T344 588H286Z" />
<glyph unicode="&#x157;" glyph-name="rcommaaccent" horiz-adv-x="389" d="M147 -66L57 -222H-43L20 -66H147ZM21 0L113 446L125 515H253L235 418H237Q256 461 300 494T389 527Q420 527 440 522L412 391Q388 399 361 399Q295 399 257 351T203 231L155 0H21Z" />
<glyph unicode="&#x158;" glyph-name="Rcaron" horiz-adv-x="611" d="M570 886L441 740H326L251 886H340L390 794L470 886H570ZM21 0L167 698H332Q363 698 376 698T418 697T462 693T500 685T537 671T566 650T590 621T604 583T610 533Q610 446 553 398T406 347V345Q463
342 477 281L544 0H397L363 164Q361 175 357 198T350 230T342 254T328 274T307 285T275 290H222L161 0H21ZM286 588L247 400H298Q341 400 375 409T437 445T464 515Q464 536 457 550T439 572T410 583T379 587T344 588H286Z" />
<glyph unicode="&#x159;" glyph-name="rcaron" horiz-adv-x="389" d="M483 731L354 585H239L164 731H253L303 639L383 731H483ZM21 0L113 446L125 515H253L235 418H237Q256 461 300 494T389 527Q420 527 440 522L412 391Q388 399 361 399Q295 399 257 351T203
231L155 0H21Z" />
<glyph unicode="&#x15a;" glyph-name="Sacute" horiz-adv-x="556" d="M305 740L386 886H519L391 740H305ZM553 679L520 564Q450 600 375 600Q330 600 294 581T258 520Q258 490 282 466T342 422T412 379T471 315T496 221Q496 101 416 45T209 -12Q117 -12 10 27L46
146Q150 98 217 98Q272 98 311 126T350 207Q350 241 326 267T266 311T196 351T137 410T112 499Q112 552 133 593T192 660T274 697T372 710Q476 710 553 679Z" />
<glyph unicode="&#x15b;" glyph-name="sacute" horiz-adv-x="444" d="M233 585L314 731H447L319 585H233ZM442 506L413 405Q348 429 303 429Q267 429 240 417T213 377Q213 359 231 342T274 309T325 274T369 226T387 162Q387 114 368 79T314 24T240 -3T155 -12Q64
-12 -2 19L27 126Q99 86 155 86Q193 86 220 100T247 143Q247 166 229 185T186 219T135 253T91 299T73 363Q73 406 92 439T145 490T216 518T296 527Q360 527 442 506Z" />
<glyph unicode="&#x15e;" glyph-name="Scedilla" horiz-adv-x="556" d="M63 -201L83 -147Q96 -152 116 -156Q142 -161 169 -162Q190 -162 201 -155Q220 -146 221 -127Q221 -108 207 -99Q194 -90 176 -91Q154 -91 134 -100L117 -74L174 -11Q137 -8 108 -1Q65 8
10 27L46 146Q152 98 217 98Q272 98 311 126T350 207Q350 241 326 267T266 311T196 351T137 410T112 499Q112 603 187 656T372 710Q476 710 553 679L520 564Q450 600 375 600Q329 600 294 581T258 520Q258 494 275 473T319 437T377 402T434 360T478 303T496 221Q496
130 448 76T318 0Q275 -10 236 -11L195 -53L197 -55Q216 -49 241 -49Q270 -49 293 -63Q317 -79 319 -118Q317 -168 275 -196Q228 -222 176 -222Q143 -222 111 -217Q82 -211 63 -201Z" />
<glyph unicode="&#x15f;" glyph-name="scedilla" horiz-adv-x="444" d="M14 -201L34 -147Q48 -152 67 -156Q93 -161 120 -162Q141 -162 152 -155Q171 -146 172 -127Q172 -108 158 -99Q145 -90 127 -91Q104 -91 85 -100L68 -74L125 -11Q100 -10 74 -5Q36 2 -2 19L27
126Q101 86 155 86Q194 86 220 99T247 143Q247 166 229 185T186 220T135 253T91 299T73 363Q73 406 92 439T145 490T216 518T296 527Q360 527 442 506L413 405Q348 429 303 429Q267 429 240 417T213 377Q213 356 240 334T300 293T360 240T387 162Q387 92 347 51T239
-3Q211 -10 187 -11L146 -53L148 -55Q168 -49 192 -49Q221 -49 244 -63Q268 -79 270 -118Q268 -168 226 -196Q179 -222 127 -222Q94 -222 62 -217Q33 -211 14 -201Z" />
<glyph unicode="&#x160;" glyph-name="Scaron" horiz-adv-x="556" d="M572 884L443 738H328L253 884H342L392 792L472 884H572ZM553 679L520 564Q450 600 375 600Q330 600 294 581T258 520Q258 490 282 466T342 422T412 379T471 315T496 221Q496 101 416 45T209
-12Q117 -12 10 27L46 146Q150 98 217 98Q272 98 311 126T350 207Q350 241 326 267T266 311T196 351T137 410T112 499Q112 552 133 593T192 660T274 697T372 710Q476 710 553 679Z" />
<glyph unicode="&#x161;" glyph-name="scaron" horiz-adv-x="444" d="M466 731L337 585H222L147 731H236L286 639L366 731H466ZM442 506L413 405Q348 429 303 429Q267 429 240 417T213 377Q213 359 231 342T274 309T325 274T369 226T387 162Q387 114 368 79T314
24T240 -3T155 -12Q64 -12 -2 19L27 126Q99 86 155 86Q193 86 220 100T247 143Q247 166 229 185T186 219T135 253T91 299T73 363Q73 406 92 439T145 490T216 518T296 527Q360 527 442 506Z" />
<glyph unicode="&#x162;" glyph-name="Tcommaaccent" horiz-adv-x="556" d="M84 588L108 698H647L624 588H427L300 0H154L281 588H84ZM283 -66L193 -222H93L156 -66H283Z" />
<glyph unicode="&#x163;" glyph-name="tcommaaccent" horiz-adv-x="389" d="M53 417L74 515H171L194 621L338 668L305 515H425L404 417H284L235 192Q229 168 229 142Q229 119 243 106T280 92Q316 92 345 104L322 0Q267 -12 250 -12Q95 -12 95 123Q95 166 112 243L150
417H53ZM245 -66L155 -222H55L118 -66H245Z" />
<glyph unicode="&#x164;" glyph-name="Tcaron" horiz-adv-x="556" d="M84 588L108 698H647L624 588H427L300 0H154L281 588H84ZM562 886L433 740H318L243 886H332L382 794L462 886H562Z" />
<glyph unicode="&#x165;" glyph-name="tcaron" horiz-adv-x="398" d="M362 552L412 731H523L434 552H362ZM53 417L74 515H171L194 621L338 668L305 515H425L404 417H284L235 192Q229 168 229 142Q229 119 243 106T280 92Q316 92 345 104L322 0Q267 -12 250 -12Q95
-12 95 123Q95 166 112 243L150 417H53Z" />
<glyph unicode="&#x16a;" glyph-name="Umacron" horiz-adv-x="722" d="M393 773L409 853H706L691 773H393ZM243 698H383L312 367Q306 339 302 321T294 272T291 220T297 174T316 134T352 109T407 98Q437 98 462 106T504 126T537 159T560 198T578 245T591 293T603
344L679 698H817L724 276Q692 133 619 61T406 -12Q95 -12 163 319L243 698Z" />
<glyph unicode="&#x16b;" glyph-name="umacron" horiz-adv-x="611" d="M224 618L240 698H537L522 618H224ZM600 515L505 74Q494 19 492 0H361L370 50H368Q301 -12 222 -12Q146 -12 100 32T54 153Q54 187 71 265L125 515H259L209 272Q194 197 194 164Q194 132 214
112T267 92Q375 92 411 256L466 515H600Z" />
<glyph unicode="&#x16e;" glyph-name="Uring" horiz-adv-x="722" d="M542 879Q521 879 507 864T492 828Q492 806 506 792T542 778Q564 778 578 792T593 828T579 864T542 879ZM647 828Q647 786 616 755T542 724T469 755T438 828T469 901T542 933Q585 933 616 902T647
828ZM243 698H383L312 367Q306 339 302 321T294 272T291 220T297 174T316 134T352 109T407 98Q437 98 462 106T504 126T537 159T560 198T578 245T591 293T603 344L679 698H817L724 276Q692 133 619 61T406 -12Q95 -12 163 319L243 698Z" />
<glyph unicode="&#x16f;" glyph-name="uring" horiz-adv-x="611" d="M484 687Q484 645 453 614T379 583T306 614T275 687T306 760T379 792Q422 792 453 761T484 687ZM379 738Q358 738 344 723T329 687Q329 665 343 651T379 637Q401 637 415 651T430 687T416 723T379
738ZM600 515L505 74Q494 19 492 0H361L370 50H368Q301 -12 222 -12Q146 -12 100 32T54 153Q54 187 71 265L125 515H259L209 272Q194 197 194 164Q194 132 214 112T267 92Q375 92 411 256L466 515H600Z" />
<glyph unicode="&#x170;" glyph-name="Uhungarumlaut" horiz-adv-x="722" d="M658 886H791L663 740H577L658 886ZM461 886H594L466 740H380L461 886ZM243 698H383L312 367Q306 339 302 321T294 272T291 220T297 174T316 134T352 109T407 98Q437 98 462 106T504
126T537 159T560 198T578 245T591 293T603 344L679 698H817L724 276Q692 133 619 61T406 -12Q95 -12 163 319L243 698Z" />
<glyph unicode="&#x171;" glyph-name="uhungarumlaut" horiz-adv-x="611" d="M300 731H433L305 585H219L300 731ZM497 731H630L502 585H416L497 731ZM600 515L505 74Q494 19 492 0H361L370 50H368Q301 -12 222 -12Q146 -12 100 32T54 153Q54 187 71 265L125 515H259L209
272Q194 197 194 164Q194 132 214 112T267 92Q375 92 411 256L466 515H600Z" />
<glyph unicode="&#x172;" glyph-name="Uogonek" horiz-adv-x="722" d="M223 698H363L292 367Q286 341 282 321T274 272T270 220T277 174T296 134T332 108T387 98Q417 98 442 106T484 126T517 159T541 198T559 245T572 293T583 344L659 698H797L704 276Q680 170
635 104T512 8Q473 -6 421 -11Q364 -46 338 -74Q307 -106 307 -129Q307 -162 342 -162Q374 -162 403 -134L441 -148Q398 -222 310 -222Q275 -222 248 -207T221 -157Q221 -128 239 -102T299 -43Q320 -27 349 -11Q287 -6 246 11Q95 77 143 319L223 698Z" />
<glyph unicode="&#x173;" glyph-name="uogonek" horiz-adv-x="611" d="M492 0H453Q321 -79 321 -129Q321 -162 356 -162Q388 -162 417 -134L455 -148Q412 -222 324 -222Q289 -222 262 -207T235 -157Q238 -115 270 -80T385 0H361L370 50H368Q302 -12 222 -12Q146
-12 100 32T54 153Q54 187 71 265L125 515H259L209 272Q194 197 194 164Q194 132 214 112T267 92Q376 92 411 256L466 515H600L505 74Q501 55 497 28T492 0Z" />
<glyph unicode="&#x178;" glyph-name="Ydieresis" horiz-adv-x="667" d="M210 0L271 289L107 698H255L359 405L586 698H749L411 289L350 0H210ZM416 878L391 762H277L302 878H416ZM624 878L599 762H485L510 878H624Z" />
<glyph unicode="&#x179;" glyph-name="Zacute" horiz-adv-x="556" d="M333 740L414 886H547L419 740H333ZM124 588L148 698H627L603 588L182 110H500L477 0H-13L9 110L429 588H124Z" />
<glyph unicode="&#x17a;" glyph-name="zacute" horiz-adv-x="500" d="M260 585L341 731H474L346 585H260ZM514 515L492 411L177 104H435L416 0H-15L6 104L323 411H86L109 515H514Z" />
<glyph unicode="&#x17b;" glyph-name="Zdotaccent" horiz-adv-x="556" d="M475 880L450 764H336L361 880H475ZM124 588L148 698H627L603 588L182 110H500L477 0H-13L9 110L429 588H124Z" />
<glyph unicode="&#x17c;" glyph-name="zdotaccent" horiz-adv-x="500" d="M408 725L383 609H269L294 725H408ZM514 515L492 411L177 104H435L416 0H-15L6 104L323 411H86L109 515H514Z" />
<glyph unicode="&#x17d;" glyph-name="Zcaron" horiz-adv-x="556" d="M572 884L443 738H328L253 884H342L392 792L472 884H572ZM124 588L148 698H627L603 588L182 110H500L477 0H-13L9 110L429 588H124Z" />
<glyph unicode="&#x17e;" glyph-name="zcaron" horiz-adv-x="500" d="M494 731L365 585H250L175 731H264L314 639L394 731H494ZM514 515L492 411L177 104H435L416 0H-15L6 104L323 411H86L109 515H514Z" />
<glyph unicode="&#x192;" glyph-name="florin" horiz-adv-x="556" d="M136 326L156 406H273Q302 538 319 585Q347 653 390 681T507 710Q556 710 615 694L584 596Q564 606 533 606Q486 606 467 584T437 513L412 406H528L510 326H396L340 67Q330 18 324 -5T307 -66T287
-121T260 -162T224 -195T176 -214T113 -222Q66 -222 2 -203L33 -105Q64 -118 88 -118Q132 -115 153 -86T188 12L254 326H136Z" />
<glyph unicode="&#x218;" glyph-name="Scommaaccent" horiz-adv-x="556" d="M284 -66L194 -222H94L157 -66H284ZM553 679L520 564Q450 600 375 600Q330 600 294 581T258 520Q258 490 282 466T342 422T412 379T471 315T496 221Q496 101 416 45T209 -12Q117 -12
10 27L46 146Q150 98 217 98Q272 98 311 126T350 207Q350 241 326 267T266 311T196 351T137 410T112 499Q112 552 133 593T192 660T274 697T372 710Q476 710 553 679Z" />
<glyph unicode="&#x219;" glyph-name="scommaaccent" horiz-adv-x="444" d="M241 -66L151 -222H51L114 -66H241ZM442 506L413 405Q348 429 303 429Q267 429 240 417T213 377Q213 359 231 342T274 309T325 274T369 226T387 162Q387 114 368 79T314 24T240 -3T155
-12Q64 -12 -2 19L27 126Q99 86 155 86Q193 86 220 100T247 143Q247 166 229 185T186 219T135 253T91 299T73 363Q73 406 92 439T145 490T216 518T296 527Q360 527 442 506Z" />
<glyph unicode="&#x21a;" glyph-name="uni021A" horiz-adv-x="556" d="M84 588L108 698H647L624 588H427L300 0H154L281 588H84ZM283 -66L193 -222H93L156 -66H283Z" />
<glyph unicode="&#x21b;" glyph-name="uni021B" horiz-adv-x="389" d="M53 417L74 515H171L194 621L338 668L305 515H425L404 417H284L235 192Q229 168 229 142Q229 119 243 106T280 92Q316 92 345 104L322 0Q267 -12 250 -12Q95 -12 95 123Q95 166 112 243L150
417H53ZM245 -66L155 -222H55L118 -66H245Z" />
<glyph unicode="&#x2c6;" glyph-name="circumflex" horiz-adv-x="278" d="M142 585H42L171 731H286L361 585H272L222 678L142 585Z" />
<glyph unicode="&#x2c7;" glyph-name="caron" horiz-adv-x="278" d="M383 731L254 585H139L64 731H153L203 639L283 731H383Z" />
<glyph unicode="&#x2c9;" glyph-name="uni02C9" horiz-adv-x="278" d="M53 618L69 698H366L351 618H53Z" />
<glyph unicode="&#x2d8;" glyph-name="breve" horiz-adv-x="278" d="M63 723H133Q135 696 147 680Q168 650 218 650Q267 650 296 675Q314 692 328 723H400Q387 672 355 635Q305 578 223 578Q137 578 97 621Q63 659 63 723Z" />
<glyph unicode="&#x2d9;" glyph-name="dotaccent" horiz-adv-x="278" d="M275 725L250 609H136L161 725H275Z" />
<glyph unicode="&#x2da;" glyph-name="ring" horiz-adv-x="278" d="M386 687Q386 645 355 614T281 583T208 614T177 687T208 760T281 792Q324 792 355 761T386 687ZM281 738Q260 738 246 723T231 687Q231 665 245 651T281 637Q303 637 317 651T332 687T318 723T281 738Z" />
<glyph unicode="&#x2db;" glyph-name="ogonek" horiz-adv-x="278" d="M155 0H223Q91 -79 91 -122Q91 -139 99 -150T123 -162Q158 -162 180 -124L228 -144Q184 -222 94 -222Q60 -222 33 -206T5 -155Q5 -121 39 -82Q80 -36 155 0Z" />
<glyph unicode="&#x2dc;" glyph-name="tilde" horiz-adv-x="278" d="M339 731H390Q373 612 272 612Q247 612 201 632T137 652Q117 652 103 637T87 603H36Q56 724 152 724Q181 724 227 704T285 684Q308 684 320 695T339 731Z" />
<glyph unicode="&#x2dd;" glyph-name="hungarumlaut" horiz-adv-x="278" d="M115 731H248L120 585H34L115 731ZM312 731H445L317 585H231L312 731Z" />
<glyph unicode="&#x394;" glyph-name="uni0394" horiz-adv-x="683" d="M468 97L381 588L95 97H468ZM587 0H-78L345 712H455L587 0Z" />
<glyph unicode="&#x3a9;" glyph-name="uni03A9" horiz-adv-x="757" d="M702 448Q702 335 633 245T455 136L445 87H633L614 0H344L384 192Q473 206 531 278T590 442Q590 525 542 574T410 624Q302 624 229 541T155 348Q155 286 185 243T275 192L235 0H-27L-9 87H169L182
142Q116 161 79 219T42 349Q42 502 152 611T416 721Q540 721 621 647T702 448Z" />
<glyph unicode="&#x3bc;" glyph-name="uni03BC" horiz-adv-x="611" d="M127 515H259L209 272Q194 197 194 164Q194 132 214 112T267 92Q376 92 411 256L466 515H600L505 74Q501 55 497 28T492 0H361L370 50H368Q302 -12 222 -12Q181 -12 158 22L110 -210H-24L127 515Z" />
<glyph unicode="&#x3c0;" glyph-name="pi" horiz-adv-x="589" d="M589 483L568 387H490L438 142Q432 118 432 104Q432 79 463 79Q478 79 508 89L492 13Q443 -7 406 -7Q370 -7 347 9T323 60Q323 78 332 123L388 387H179L97 0H-5L77 387H7L27 483H589Z" />
<glyph unicode="&#x2010;" glyph-name="hyphen" horiz-adv-x="389" d="M59 214L82 324H345L322 214H59Z" />
<glyph unicode="&#x2013;" glyph-name="endash" horiz-adv-x="500" d="M498 223H-2L18 315H518L498 223Z" />
<glyph unicode="&#x2014;" glyph-name="emdash" horiz-adv-x="1000" d="M-2 223L18 315H1018L998 223H-2Z" />
<glyph unicode="&#x2018;" glyph-name="quoteleft" horiz-adv-x="278" d="M216 698H337L235 448H84L216 698Z" />
<glyph unicode="&#x2019;" glyph-name="quoteright" horiz-adv-x="278" d="M94 448L196 698H347L214 448H94Z" />
<glyph unicode="&#x201a;" glyph-name="quotesinglbase" horiz-adv-x="278" d="M83 -110H-37L65 140H216L83 -110Z" />
<glyph unicode="&#x201c;" glyph-name="quotedblleft" horiz-adv-x="500" d="M438 698H559L457 448H306L438 698ZM216 698H337L235 448H84L216 698Z" />
<glyph unicode="&#x201d;" glyph-name="quotedblright" horiz-adv-x="500" d="M437 448H316L418 698H569L437 448ZM215 448H94L196 698H347L215 448Z" />
<glyph unicode="&#x201e;" glyph-name="quotedblbase" horiz-adv-x="500" d="M305 -110H185L287 140H438L305 -110ZM83 -110H-37L65 140H216L83 -110Z" />
<glyph unicode="&#x2020;" glyph-name="dagger" horiz-adv-x="556" d="M383 435L293 0H169L259 435H109L131 539H281L314 698H438L405 539H558L536 435H383Z" />
<glyph unicode="&#x2021;" glyph-name="daggerdbl" horiz-adv-x="556" d="M324 147L293 0H169L200 147H46L66 245H220L265 457H109L129 555H285L315 698H439L409 555H564L544 457H389L345 245H500L480 147H324Z" />
<glyph unicode="&#x2022;" glyph-name="bullet" horiz-adv-x="500" d="M100 277T100 349T151 472T274 523T397 472T449 349T398 226T274 174T151 225Z" />
<glyph unicode="&#x2026;" glyph-name="ellipsis" horiz-adv-x="1000" d="M718 0L747 140H887L858 0H718ZM385 0L414 140H554L525 0H385ZM52 0L81 140H221L192 0H52Z" />
<glyph unicode="&#x2030;" glyph-name="perthousand" horiz-adv-x="1000" d="M184 364Q118 364 86 393T54 488Q54 578 99 644T228 710Q283 710 318 678T354 590Q354 531 339 483T283 399T184 364ZM186 436Q214 436 232 468T256 532T262 592Q262 638 223 638Q202
638 186 621T162 578T150 528T146 486Q146 436 186 436ZM480 -12Q414 -12 382 17T350 112Q350 202 395 268T524 334Q579 334 614 302T650 214Q650 155 635 107T579 23T480 -12ZM482 60Q510 60 528 92T552 156T558 216Q558 262 519 262Q498 262 482 245T458 202T446
152T442 110Q442 60 482 60ZM815 -12Q749 -12 717 17T685 112Q685 202 730 268T859 334Q914 334 949 302T985 214Q985 155 970 107T914 23T815 -12ZM817 60Q845 60 863 92T887 156T893 216Q893 262 854 262Q833 262 817 245T793 202T781 152T777 110Q777 60 817
60ZM39 -22L581 720H666L124 -22H39Z" />
<glyph unicode="&#x2039;" glyph-name="guilsinglleft" horiz-adv-x="389" d="M46 269L196 474H336L178 269L248 64H133L46 269Z" />
<glyph unicode="&#x203a;" glyph-name="guilsinglright" horiz-adv-x="389" d="M343 269L193 64H53L211 269L141 474H256L343 269Z" />
<glyph unicode="&#x2044;" glyph-name="fraction" horiz-adv-x="167" d="M252 720H337L-83 -22H-168L252 720Z" />
<glyph unicode="&#x20ac;" glyph-name="Euro" horiz-adv-x="556" d="M688 683L640 579Q596 603 527 603Q451 603 387 561T287 449H583L555 388H258Q247 353 242 310H521L494 249H245Q253 178 299 138T419 98Q488 98 542 120L525 8Q462 -12 376 -12Q249 -12 172
55T95 249H-4L24 310H99Q106 354 115 388H25L53 449H138Q190 567 296 638T528 710Q619 710 688 683Z" />
<glyph unicode="&#x2113;" glyph-name="afii61289" horiz-adv-x="500" d="M479 608Q479 450 229 270Q198 139 198 112Q198 61 246 61Q288 61 345 101H347L373 42Q294 -14 218 -14Q161 -14 129 14T96 94Q96 104 116 203L51 151H49L20 208L134 291L187 541Q206 628
253 674T368 721Q418 721 448 689T479 608ZM395 603Q395 625 385 639T358 653Q312 653 292 564L248 361Q306 412 350 479T395 603Z" />
<glyph unicode="&#x2122;" glyph-name="trademark" horiz-adv-x="1000" d="M489 282V698H634L733 438L831 698H976V282H878V576H876L770 282H695L589 576H587V282H489ZM189 282V618H72V698H410V618H293V282H189Z" />
<glyph unicode="&#x2126;" glyph-name="Omega" horiz-adv-x="757" d="M702 448Q702 335 633 245T455 136L445 87H633L614 0H344L384 192Q473 206 531 278T590 442Q590 525 542 574T410 624Q302 624 229 541T155 348Q155 286 185 243T275 192L235 0H-27L-9 87H169L182
142Q116 161 79 219T42 349Q42 502 152 611T416 721Q540 721 621 647T702 448Z" />
<glyph unicode="&#x212e;" glyph-name="estimated" horiz-adv-x="600" d="M561 259H157V78Q216 19 302 19Q365 19 411 47T495 139L530 118Q484 45 432 14T302 -17Q187 -17 116 62T44 259Q44 378 115 456T302 535Q417 535 489 458T561 259ZM157 295H448V440Q385
500 301 500T157 440V295Z" />
<glyph unicode="&#x2202;" glyph-name="partialdiff" horiz-adv-x="567" d="M191 641L176 728Q261 785 367 785Q481 785 538 686T557 406Q517 219 420 106T193 -8Q143 -8 107 13T55 69T34 144T39 227Q64 344 141 415T309 487Q364 487 397 460T441 405H442Q444
413 450 440Q472 543 439 615T332 688Q260 688 191 641ZM225 90H226Q281 90 331 155T409 305Q406 336 381 364T311 393Q259 393 214 343T154 224Q142 167 161 129T225 90Z" />
<glyph unicode="&#x2206;" glyph-name="increment" horiz-adv-x="683" d="M468 97L381 588L95 97H468ZM587 0H-78L345 712H455L587 0Z" />
<glyph unicode="&#x220f;" glyph-name="product" horiz-adv-x="737" d="M674 -214H566V688H170V-214H63V786H674V-214Z" />
<glyph unicode="&#x2211;" glyph-name="summation" horiz-adv-x="643" d="M618 -214H25V-128L331 291L38 702V786H605V688H181L460 292L163 -117H618V-214Z" />
<glyph unicode="&#x2212;" glyph-name="minus" horiz-adv-x="600" d="M569 201H61V305H569V201Z" />
<glyph unicode="&#x2215;" glyph-name="uni2215" horiz-adv-x="167" d="M252 720H337L-83 -22H-168L252 720Z" />
<glyph unicode="&#x2219;" glyph-name="uni2219" horiz-adv-x="278" d="M157 207Q126 207 103 229T80 284T103 338T157 361Q189 361 211 339T234 284T212 230T157 207Z" />
<glyph unicode="&#x221a;" glyph-name="radical" horiz-adv-x="531" d="M518 786L307 -214H206L52 105L2 82L-37 167L105 232L238 -49L408 786H518Z" />
<glyph unicode="&#x221e;" glyph-name="infinity" horiz-adv-x="806" d="M311 258Q225 344 170 344Q135 344 114 319T93 259Q93 222 114 199T174 176Q209 176 246 200T311 258ZM638 259Q638 297 617 321T558 345Q549 345 541 344T523 338T507 330T490 320T475
309T460 295T447 283T433 269T421 257Q497 175 561 175Q597 175 617 199T638 259ZM724 262Q724 185 680 134T559 83Q504 83 459 113T366 195Q334 163 323 153T284 121T231 93T174 85Q99 85 53 134T7 260T52 386T171 436Q230 436 273 406T366 318Q414 374 459 405T560
437Q634 437 679 388T724 262Z" />
<glyph unicode="&#x222b;" glyph-name="integral'" horiz-adv-x="600" d="M474 713Q474 692 459 678T423 664Q398 664 386 680T368 712T352 729Q333 729 333 697Q333 675 334 631T335 564L336 40Q336 11 336 4T335 -33T332 -73T325 -108T314 -143T296 -170T271
-194T238 -208T195 -214Q157 -214 125 -196T93 -142Q93 -121 106 -107T141 -93Q166 -93 178 -109T196 -143T211 -160Q218 -160 222 -157T228 -147T230 -135T230 -121V-111Q230 -95 229 -63T227 -14V521Q227 528 227 541Q227 577 227 597T231 651T244 704T268 745T308
776T369 786Q407 786 440 768T474 713Z" />
<glyph unicode="&#x2248;" glyph-name="approxequal" horiz-adv-x="593" d="M468 241H536Q529 169 494 122T391 74Q348 74 254 108T133 143Q106 143 89 123T68 74H0Q7 145 42 193T144 242Q188 242 276 209T404 175Q455 175 468 241ZM469 444H537Q530 372 495 325T392
277Q349 277 255 311T135 346Q84 346 70 277H2Q9 348 44 396T146 445Q188 445 278 412T406 378Q456 378 469 444Z" />
<glyph unicode="&#x2260;" glyph-name="notequal" horiz-adv-x="593" d="M528 99H243L166 -53L77 -7L131 99H9V201H183L243 318H9V419H294L372 571L460 526L406 419H528V318H354L294 201H528V99Z" />
<glyph unicode="&#x2264;" glyph-name="lessequal" horiz-adv-x="593" d="M528 -35H9V66H528V-35ZM528 100L9 272V375L528 554V447L147 324L528 207V100Z" />
<glyph unicode="&#x2265;" glyph-name="greaterequal" horiz-adv-x="593" d="M528 -35H9V66H528V-35ZM528 272L9 100V207L390 324L9 447V554L528 375V272Z" />
<glyph unicode="&#x25ca;" glyph-name="lozenge" horiz-adv-x="593" d="M417 356L295 646L176 356L295 65L417 356ZM520 356L343 -35H248L72 356L248 747H343L520 356Z" />
<glyph unicode="&#xe300;" glyph-name="grave.cap" horiz-adv-x="278" d="M316 740H231L102 886H235L316 740Z" />
<glyph unicode="&#xe301;" glyph-name="acute.cap" horiz-adv-x="278" d="M182 740L263 886H396L268 740H182Z" />
<glyph unicode="&#xe302;" glyph-name="circumflex.cap" horiz-adv-x="278" d="M182 740H82L211 886H326L401 740H312L262 833L182 740Z" />
<glyph unicode="&#xe303;" glyph-name="caron.cap" horiz-adv-x="278" d="M429 886L300 740H185L110 886H199L249 794L329 886H429Z" />
<glyph unicode="&#xe304;" glyph-name="tilde.cap" horiz-adv-x="278" d="M379 886H430Q411 767 312 767Q286 767 241 787T177 807Q157 807 143 792T127 758H76Q97 879 192 879Q221 879 267 859T325 839Q348 839 360 850T379 886Z" />
<glyph unicode="&#xe305;" glyph-name="dieresis.cap" horiz-adv-x="278" d="M221 880L196 764H82L107 880H221ZM429 880L404 764H290L315 880H429Z" />
<glyph unicode="&#xe306;" glyph-name="macron.cap" horiz-adv-x="278" d="M93 773L109 853H406L391 773H93Z" />
<glyph unicode="&#xe307;" glyph-name="breve.cap" horiz-adv-x="278" d="M105 886H167Q178 807 259 806Q341 807 369 886H431Q423 819 372 777T253 734T146 774T105 886Z" />
<glyph unicode="&#xe308;" glyph-name="ring.cap" horiz-adv-x="278" d="M261 879Q240 879 226 864T211 828Q211 806 225 792T261 778Q283 778 297 792T312 828T298 864T261 879ZM366 828Q366 786 335 755T261 724T188 755T157 828T188 901T261 933Q304 933 335
902T366 828Z" />
<glyph unicode="&#xe309;" glyph-name="hungarumlaut.cap" horiz-adv-x="278" d="M352 886H485L357 740H271L352 886ZM155 886H288L160 740H74L155 886Z" />
<glyph unicode="&#xe30a;" glyph-name="dotaccent.cap" horiz-adv-x="278" d="M315 880L290 764H176L201 880H315Z" />
<glyph unicode="&#xe30b;" glyph-name="caron.alt" horiz-adv-x="278" d="M78 532L136 731H251L152 532H78Z" />
<glyph unicode="&#xe30c;" glyph-name="commaaccent" horiz-adv-x="278" d="M149 -66L59 -222H-41L22 -66H149Z" />
<glyph unicode="&#xe30d;" glyph-name="commaaccent.alt" horiz-adv-x="278" d="M129 585L214 731H311L251 585H129Z" />
<glyph unicode="&#xf8ff;" glyph-name="uniF8FF" horiz-adv-x="512" d="M278 117H222V184H278V117ZM271 234H225L223 251Q223 307 236 332Q251 360 282 391Q313 420 322 437T332 474Q332 510 310 534T256 559Q185 559 174 464L124 472Q131 541 167 575T259 609Q313
609 348 573T383 478Q383 444 370 418T320 358Q283 325 277 306Q271 286 271 234ZM50 50H462V667H50V50ZM0 718H512V0H0V718Z" />
<glyph unicode="&#xfb01;" glyph-name="fi" horiz-adv-x="667" d="M411 0L521 515H655L545 0H411ZM542 609L570 737H704L676 609H542ZM69 0L157 417H53L74 515H178Q187 559 197 591T224 658T265 713T324 748T405 762Q447 762 488 749L457 649Q439 658 416 658Q391
658 373 646T343 610T326 569T314 524Q313 518 312 515H432L411 417H291L203 0H69Z" />
<glyph unicode="&#xfb02;" glyph-name="fl" horiz-adv-x="667" d="M411 0L570 750H704L545 0H411ZM69 0L157 417H53L74 515H178Q187 559 197 591T224 658T265 713T324 748T405 762Q447 762 488 749L457 649Q439 658 416 658Q391 658 373 646T343 610T326 569T314
524Q313 518 312 515H432L411 417H291L203 0H69Z" />
</font>
</defs>
</svg>
